VHDL/Components/ALU/simulation/qsim/ALU.msim.vcd
$comment
	File created using the following command:
		vcd file ALU.msim.vcd -direction
$end
$date
	Sun May 05 07:27:51 2019
$end
$version
	ModelSim Version 10.5b
$end
$timescale
	1ps
$end

$scope module opcode_decoder_vhd_vec_tst $end
$var wire 1 ! InstrOpCode [7] $end
$var wire 1 " InstrOpCode [6] $end
$var wire 1 # InstrOpCode [5] $end
$var wire 1 $ InstrOpCode [4] $end
$var wire 1 % InstrOpCode [3] $end
$var wire 1 & InstrOpCode [2] $end
$var wire 1 ' InstrOpCode [1] $end
$var wire 1 ( InstrOpCode [0] $end
$var wire 1 ) Op_ADS $end
$var wire 1 * Op_ARS $end
$var wire 1 + Op_BCC $end
$var wire 1 , Op_BCS $end
$var wire 1 - Op_BEQ $end
$var wire 1 . Op_BOV $end
$var wire 1 / Op_BRA $end
$var wire 1 0 Op_ENS $end
$var wire 1 1 Op_HCF $end
$var wire 1 2 Op_JSR $end
$var wire 1 3 Op_LDB $end
$var wire 1 4 Op_LDL $end
$var wire 1 5 Op_LDS $end
$var wire 1 6 Op_LIL $end
$var wire 1 7 Op_LIU $end
$var wire 1 8 Op_LPB $end
$var wire 1 9 Op_LPL $end
$var wire 1 : Op_LPS $end
$var wire 1 ; Op_LR1 $end
$var wire 1 < Op_LS1 $end
$var wire 1 = Op_MAO $end
$var wire 1 > Op_MUL $end
$var wire 1 ? Op_NOP $end
$var wire 1 @ Op_ORS $end
$var wire 1 A Op_RA1 $end
$var wire 1 B Op_RES $end
$var wire 1 C Op_RR1 $end
$var wire 1 D Op_RS1 $end
$var wire 1 E Op_RTS $end
$var wire 1 F Op_SDB $end
$var wire 1 G Op_SDL $end
$var wire 1 H Op_SDS $end
$var wire 1 I Op_SPB $end
$var wire 1 J Op_SPL $end
$var wire 1 K Op_SPS $end
$var wire 1 L Op_XRS $end

$scope module i1 $end
$var wire 1 M gnd $end
$var wire 1 N vcc $end
$var wire 1 O unknown $end
$var wire 1 P devoe $end
$var wire 1 Q devclrn $end
$var wire 1 R devpor $end
$var wire 1 S ww_devoe $end
$var wire 1 T ww_devclrn $end
$var wire 1 U ww_devpor $end
$var wire 1 V ww_InstrOpCode [7] $end
$var wire 1 W ww_InstrOpCode [6] $end
$var wire 1 X ww_InstrOpCode [5] $end
$var wire 1 Y ww_InstrOpCode [4] $end
$var wire 1 Z ww_InstrOpCode [3] $end
$var wire 1 [ ww_InstrOpCode [2] $end
$var wire 1 \ ww_InstrOpCode [1] $end
$var wire 1 ] ww_InstrOpCode [0] $end
$var wire 1 ^ ww_Op_HCF $end
$var wire 1 _ ww_Op_NOP $end
$var wire 1 ` ww_Op_RES $end
$var wire 1 a ww_Op_ADS $end
$var wire 1 b ww_Op_MUL $end
$var wire 1 c ww_Op_MAO $end
$var wire 1 d ww_Op_ORS $end
$var wire 1 e ww_Op_ARS $end
$var wire 1 f ww_Op_XRS $end
$var wire 1 g ww_Op_LS1 $end
$var wire 1 h ww_Op_RS1 $end
$var wire 1 i ww_Op_LR1 $end
$var wire 1 j ww_Op_RR1 $end
$var wire 1 k ww_Op_RA1 $end
$var wire 1 l ww_Op_ENS $end
$var wire 1 m ww_Op_LIL $end
$var wire 1 n ww_Op_LIU $end
$var wire 1 o ww_Op_LDB $end
$var wire 1 p ww_Op_SDB $end
$var wire 1 q ww_Op_LDS $end
$var wire 1 r ww_Op_SDS $end
$var wire 1 s ww_Op_LDL $end
$var wire 1 t ww_Op_SDL $end
$var wire 1 u ww_Op_LPB $end
$var wire 1 v ww_Op_SPB $end
$var wire 1 w ww_Op_LPS $end
$var wire 1 x ww_Op_SPS $end
$var wire 1 y ww_Op_LPL $end
$var wire 1 z ww_Op_SPL $end
$var wire 1 { ww_Op_JSR $end
$var wire 1 | ww_Op_RTS $end
$var wire 1 } ww_Op_BRA $end
$var wire 1 ~ ww_Op_BCS $end
$var wire 1 !! ww_Op_BCC $end
$var wire 1 "! ww_Op_BOV $end
$var wire 1 #! ww_Op_BEQ $end
$var wire 1 $! \Op_HCF~output_o\ $end
$var wire 1 %! \Op_NOP~output_o\ $end
$var wire 1 &! \Op_RES~output_o\ $end
$var wire 1 '! \Op_ADS~output_o\ $end
$var wire 1 (! \Op_MUL~output_o\ $end
$var wire 1 )! \Op_MAO~output_o\ $end
$var wire 1 *! \Op_ORS~output_o\ $end
$var wire 1 +! \Op_ARS~output_o\ $end
$var wire 1 ,! \Op_XRS~output_o\ $end
$var wire 1 -! \Op_LS1~output_o\ $end
$var wire 1 .! \Op_RS1~output_o\ $end
$var wire 1 /! \Op_LR1~output_o\ $end
$var wire 1 0! \Op_RR1~output_o\ $end
$var wire 1 1! \Op_RA1~output_o\ $end
$var wire 1 2! \Op_ENS~output_o\ $end
$var wire 1 3! \Op_LIL~output_o\ $end
$var wire 1 4! \Op_LIU~output_o\ $end
$var wire 1 5! \Op_LDB~output_o\ $end
$var wire 1 6! \Op_SDB~output_o\ $end
$var wire 1 7! \Op_LDS~output_o\ $end
$var wire 1 8! \Op_SDS~output_o\ $end
$var wire 1 9! \Op_LDL~output_o\ $end
$var wire 1 :! \Op_SDL~output_o\ $end
$var wire 1 ;! \Op_LPB~output_o\ $end
$var wire 1 <! \Op_SPB~output_o\ $end
$var wire 1 =! \Op_LPS~output_o\ $end
$var wire 1 >! \Op_SPS~output_o\ $end
$var wire 1 ?! \Op_LPL~output_o\ $end
$var wire 1 @! \Op_SPL~output_o\ $end
$var wire 1 A! \Op_JSR~output_o\ $end
$var wire 1 B! \Op_RTS~output_o\ $end
$var wire 1 C! \Op_BRA~output_o\ $end
$var wire 1 D! \Op_BCS~output_o\ $end
$var wire 1 E! \Op_BCC~output_o\ $end
$var wire 1 F! \Op_BOV~output_o\ $end
$var wire 1 G! \Op_BEQ~output_o\ $end
$var wire 1 H! \InstrOpCode[3]~input_o\ $end
$var wire 1 I! \InstrOpCode[2]~input_o\ $end
$var wire 1 J! \InstrOpCode[0]~input_o\ $end
$var wire 1 K! \InstrOpCode[4]~input_o\ $end
$var wire 1 L! \InstrOpCode[1]~input_o\ $end
$var wire 1 M! \Equal0~0_combout\ $end
$var wire 1 N! \InstrOpCode[6]~input_o\ $end
$var wire 1 O! \InstrOpCode[5]~input_o\ $end
$var wire 1 P! \InstrOpCode[7]~input_o\ $end
$var wire 1 Q! \Op_HCF~0_combout\ $end
$var wire 1 R! \Op_HCF~1_combout\ $end
$var wire 1 S! \Equal1~0_combout\ $end
$var wire 1 T! \Op_NOP~0_combout\ $end
$var wire 1 U! \Equal2~0_combout\ $end
$var wire 1 V! \Op_RES~0_combout\ $end
$var wire 1 W! \opc_Cat_Decoder|Equal0~0_combout\ $end
$var wire 1 X! \Op_ADS~0_combout\ $end
$var wire 1 Y! \Op_MUL~0_combout\ $end
$var wire 1 Z! \Op_MAO~0_combout\ $end
$var wire 1 [! \Op_ORS~0_combout\ $end
$var wire 1 \! \Op_ARS~0_combout\ $end
$var wire 1 ]! \Op_XRS~0_combout\ $end
$var wire 1 ^! \Op_LS1~2_combout\ $end
$var wire 1 _! \Op_LS1~3_combout\ $end
$var wire 1 `! \Op_RS1~0_combout\ $end
$var wire 1 a! \Op_LR1~0_combout\ $end
$var wire 1 b! \Op_RR1~0_combout\ $end
$var wire 1 c! \Op_RA1~1_combout\ $end
$var wire 1 d! \Op_RA1~0_combout\ $end
$var wire 1 e! \Op_RA1~2_combout\ $end
$var wire 1 f! \Equal0~1_combout\ $end
$var wire 1 g! \Op_LIL~0_combout\ $end
$var wire 1 h! \Equal1~1_combout\ $end
$var wire 1 i! \Op_LIU~0_combout\ $end
$var wire 1 j! \opc_Cat_Decoder|Equal0~1_combout\ $end
$var wire 1 k! \Op_LDB~0_combout\ $end
$var wire 1 l! \Op_SDB~0_combout\ $end
$var wire 1 m! \Op_LDS~0_combout\ $end
$var wire 1 n! \Op_BCC~0_combout\ $end
$var wire 1 o! \Op_SDS~0_combout\ $end
$var wire 1 p! \Op_LDL~0_combout\ $end
$var wire 1 q! \Op_SDL~2_combout\ $end
$var wire 1 r! \Op_SDL~3_combout\ $end
$var wire 1 s! \opc_Cat_Decoder|Equal0~2_combout\ $end
$var wire 1 t! \Op_LPB~0_combout\ $end
$var wire 1 u! \Op_SPB~0_combout\ $end
$var wire 1 v! \Op_LPS~0_combout\ $end
$var wire 1 w! \Op_SPS~0_combout\ $end
$var wire 1 x! \Op_LPL~0_combout\ $end
$var wire 1 y! \Op_SPL~2_combout\ $end
$var wire 1 z! \Op_JSR~0_combout\ $end
$var wire 1 {! \Op_RTS~0_combout\ $end
$var wire 1 |! \Op_BCC~1_combout\ $end
$var wire 1 }! \Op_BRA~0_combout\ $end
$var wire 1 ~! \Op_BCS~0_combout\ $end
$var wire 1 !" \Op_BCC~2_combout\ $end
$var wire 1 "" \Op_BEQ~0_combout\ $end
$upscope $end
$upscope $end
$enddefinitions $end
#0
$dumpvars
0)
0*
0+
0,
0-
0.
0/
00
11
02
03
04
05
06
07
08
09
0:
0;
0<
0=
0>
0?
0@
0A
0B
0C
0D
0E
0F
0G
0H
0I
0J
0K
0L
0M
1N
xO
1P
1Q
1R
1S
1T
1U
1^
0_
0`
0a
0b
0c
0d
0e
0f
0g
0h
0i
0j
0k
0l
0m
0n
0o
0p
0q
0r
0s
0t
0u
0v
0w
0x
0y
0z
0{
0|
0}
0~
0!!
0"!
0#!
1$!
0%!
0&!
0'!
0(!
0)!
0*!
0+!
0,!
0-!
0.!
0/!
00!
01!
02!
03!
04!
05!
06!
07!
08!
09!
0:!
0;!
0<!
0=!
0>!
0?!
0@!
0A!
0B!
0C!
0D!
0E!
0F!
0G!
0H!
0I!
0J!
0K!
0L!
1M!
0N!
0O!
0P!
1Q!
1R!
0S!
0T!
0U!
0V!
0W!
0X!
0Y!
0Z!
0[!
0\!
0]!
0^!
0_!
0`!
0a!
0b!
0c!
1d!
0e!
1f!
0g!
0h!
0i!
0j!
0k!
0l!
0m!
0n!
0o!
0p!
0q!
0r!
0s!
0t!
0u!
0v!
0w!
0x!
0y!
0z!
0{!
0|!
0}!
0~!
0!"
0""
0!
0"
0#
0$
0%
0&
0'
0(
0V
0W
0X
0Y
0Z
0[
0\
0]
$end
#10000
1(
1]
1J!
0M!
1S!
0d!
1T!
1h!
0R!
0f!
0$!
1%!
0^
1_
01
1?
#20000
0(
1'
0]
1\
1L!
0J!
0S!
1U!
1V!
0T!
0h!
0%!
1&!
0_
1`
0?
1B
#30000
1(
1]
1J!
0U!
1n!
0V!
0&!
0`
0B
#40000
0(
0'
1&
0]
0\
1[
1I!
0L!
0J!
1d!
1c!
0n!
#50000
1(
1]
1J!
0d!
1q!
#60000
0(
1'
0]
1\
1L!
0J!
0q!
#70000
1(
1]
1J!
#80000
0(
0'
0&
1%
0]
0\
0[
1Z
1H!
0I!
0L!
0J!
1d!
1M!
0c!
#90000
1(
1]
1J!
0M!
1S!
0d!
#100000
0(
1'
0]
1\
1L!
0J!
0S!
1U!
#110000
1(
1]
1J!
0U!
1n!
#120000
0(
0'
1&
0]
0\
1[
1I!
0L!
0J!
1d!
0n!
#130000
1(
1]
1J!
0d!
#140000
0(
1'
0]
1\
1L!
0J!
#150000
1(
1]
1J!
#160000
0(
0'
0&
0%
1$
0]
0\
0[
0Z
1Y
1K!
0H!
0I!
0L!
0J!
1d!
#170000
1(
1]
1J!
0d!
#180000
0(
1'
0]
1\
1L!
0J!
#190000
1(
1]
1J!
#200000
0(
0'
1&
0]
0\
1[
1I!
0L!
0J!
1d!
1c!
#210000
1(
1]
1J!
0d!
#220000
0(
1'
0]
1\
1L!
0J!
#230000
1(
1]
1J!
#240000
0(
0'
0&
1%
0]
0\
0[
1Z
1H!
0I!
0L!
0J!
1d!
0c!
#250000
1(
1]
1J!
0d!
#260000
0(
1'
0]
1\
1L!
0J!
#270000
1(
1]
1J!
#280000
0(
0'
1&
0]
0\
1[
1I!
0L!
0J!
1d!
#290000
1(
1]
1J!
0d!
#300000
0(
1'
0]
1\
1L!
0J!
#310000
1(
1]
1J!
#320000
0(
0'
0&
0%
0$
1#
0]
0\
0[
0Z
0Y
1X
1O!
0K!
0H!
0I!
0L!
0J!
1d!
1M!
0Q!
1W!
1X!
1f!
1'!
12!
1a
1l
1)
10
#330000
1(
1]
1J!
0M!
1S!
0d!
1Y!
1h!
0X!
0f!
0'!
02!
1(!
0a
0l
1b
0)
00
1>
#340000
0(
1'
0]
1\
1L!
0J!
0S!
1U!
1Z!
0Y!
0h!
0(!
1)!
0b
1c
0>
1=
#350000
1(
1]
1J!
0U!
1n!
0Z!
0)!
0c
0=
#360000
0(
0'
1&
0]
0\
1[
1I!
0L!
0J!
1d!
1c!
0n!
#370000
1(
1]
1J!
0d!
1q!
#380000
0(
1'
0]
1\
1L!
0J!
0q!
#390000
1(
1]
1J!
#400000
0(
0'
0&
1%
0]
0\
0[
1Z
1H!
0I!
0L!
0J!
1d!
1M!
0c!
1[!
1*!
1d
1@
#410000
1(
1]
1J!
0M!
1S!
0d!
1\!
0[!
0*!
1+!
0d
1e
0@
1*
#420000
0(
1'
0]
1\
1L!
0J!
0S!
1U!
1]!
0\!
0+!
1,!
0e
1f
0*
1L
#430000
1(
1]
1J!
0U!
1n!
0]!
0,!
0f
0L
#440000
0(
0'
1&
0]
0\
1[
1I!
0L!
0J!
1d!
0n!
#450000
1(
1]
1J!
0d!
#460000
0(
1'
0]
1\
1L!
0J!
#470000
1(
1]
1J!
#480000
0(
0'
0&
0%
1$
0]
0\
0[
0Z
1Y
1K!
0H!
0I!
0L!
0J!
1d!
1^!
1_!
1-!
1g
1<
#490000
1(
1]
1J!
0_!
1`!
0d!
1.!
0-!
1h
0g
1D
0<
#500000
0(
1'
0]
1\
1L!
0J!
0`!
1a!
1/!
0.!
1i
0h
1;
0D
#510000
1(
1]
1J!
0a!
1b!
10!
0/!
1j
0i
1C
0;
#520000
0(
0'
1&
0]
0\
1[
1I!
0L!
0J!
1_!
0b!
1d!
0^!
1c!
0_!
1e!
00!
1-!
0j
1g
11!
0-!
0C
1<
1k
0g
1A
0<
#530000
1(
1]
1J!
0d!
0e!
01!
0k
0A
#540000
0(
1'
0]
1\
1L!
0J!
#550000
1(
1]
1J!
#560000
0(
0'
0&
1%
0]
0\
0[
1Z
1H!
0I!
0L!
0J!
1d!
0c!
#570000
1(
1]
1J!
0d!
#580000
0(
1'
0]
1\
1L!
0J!
#590000
1(
1]
1J!
#600000
0(
0'
1&
0]
0\
1[
1I!
0L!
0J!
1d!
#610000
1(
1]
1J!
0d!
#620000
0(
1'
0]
1\
1L!
0J!
#630000
1(
1]
1J!
#640000
0(
0'
0&
0%
0$
0#
1"
0]
0\
0[
0Z
0Y
0X
1W
1N!
0O!
0K!
0H!
0I!
0L!
0J!
1d!
1M!
0W!
1f!
1g!
13!
1m
16
#650000
1(
1]
1J!
0M!
1S!
0d!
1h!
0f!
0g!
1i!
14!
03!
1n
0m
17
06
#660000
0(
1'
0]
1\
1L!
0J!
0S!
1U!
0h!
0i!
04!
0n
07
#670000
1(
1]
1J!
0U!
1n!
#680000
0(
0'
1&
0]
0\
1[
1I!
0L!
0J!
1d!
1c!
0n!
#690000
1(
1]
1J!
0d!
1q!
#700000
0(
1'
0]
1\
1L!
0J!
0q!
#710000
1(
1]
1J!
#720000
0(
0'
0&
1%
0]
0\
0[
1Z
1H!
0I!
0L!
0J!
1d!
1M!
0c!
#730000
1(
1]
1J!
0M!
1S!
0d!
#740000
0(
1'
0]
1\
1L!
0J!
0S!
1U!
#750000
1(
1]
1J!
0U!
1n!
#760000
0(
0'
1&
0]
0\
1[
1I!
0L!
0J!
1d!
0n!
#770000
1(
1]
1J!
0d!
#780000
0(
1'
0]
1\
1L!
0J!
#790000
1(
1]
1J!
#800000
0(
0'
0&
0%
1$
0]
0\
0[
0Z
1Y
1K!
0H!
0I!
0L!
0J!
1d!
#810000
1(
1]
1J!
0d!
#820000
0(
1'
0]
1\
1L!
0J!
#830000
1(
1]
1J!
#840000
0(
0'
1&
0]
0\
1[
1I!
0L!
0J!
1d!
1c!
#850000
1(
1]
1J!
0d!
#860000
0(
1'
0]
1\
1L!
0J!
#870000
1(
1]
1J!
#880000
0(
0'
0&
1%
0]
0\
0[
1Z
1H!
0I!
0L!
0J!
1d!
0c!
#890000
1(
1]
1J!
0d!
#900000
0(
1'
0]
1\
1L!
0J!
#910000
1(
1]
1J!
#920000
0(
0'
1&
0]
0\
1[
1I!
0L!
0J!
1d!
#930000
1(
1]
1J!
0d!
#940000
0(
1'
0]
1\
1L!
0J!
#950000
1(
1]
1J!
#960000
0(
0'
0&
0%
0$
1#
0]
0\
0[
0Z
0Y
1X
1O!
0K!
0H!
0I!
0L!
0J!
1d!
1M!
1j!
1f!
1k!
15!
1o
13
#970000
1(
1]
1J!
0M!
1S!
0d!
1h!
1l!
0f!
0k!
05!
16!
0o
1p
03
1F
#980000
0(
1'
0]
1\
1L!
0J!
0S!
1U!
1m!
0h!
0l!
06!
17!
0p
1q
0F
15
#990000
1(
1]
1J!
0U!
1n!
1o!
0m!
07!
18!
0q
1r
05
1H
#1000000
0(
0'
1&
0]
0\
1[
1I!
0L!
0J!
1d!
1c!
0n!
0o!
1p!
19!
08!
1s
0r
14
0H
#1010000
1(
1]
1J!
0d!
1q!
1r!
0p!
09!
1:!
0s
1t
04
1G
#1020000
0(
1'
0]
1\
1L!
0J!
0q!
0r!
0:!
0t
0G
#1030000
1(
1]
1J!
#1040000
0(
0'
0&
1%
0]
0\
0[
1Z
1H!
0I!
0L!
0J!
1d!
1M!
0c!
#1050000
1(
1]
1J!
0M!
1S!
0d!
#1060000
0(
1'
0]
1\
1L!
0J!
0S!
1U!
#1070000
1(
1]
1J!
0U!
1n!
#1080000
0(
0'
1&
0]
0\
1[
1I!
0L!
0J!
1d!
0n!
#1090000
1(
1]
1J!
0d!
#1100000
0(
1'
0]
1\
1L!
0J!
#1110000
1(
1]
1J!
#1120000
0(
0'
0&
0%
1$
0]
0\
0[
0Z
1Y
1K!
0H!
0I!
0L!
0J!
1d!
#1130000
1(
1]
1J!
0d!
#1140000
0(
1'
0]
1\
1L!
0J!
#1150000
1(
1]
1J!
#1160000
0(
0'
1&
0]
0\
1[
1I!
0L!
0J!
1d!
1c!
#1170000
1(
1]
1J!
0d!
#1180000
0(
1'
0]
1\
1L!
0J!
#1190000
1(
1]
1J!
#1200000
0(
0'
0&
1%
0]
0\
0[
1Z
1H!
0I!
0L!
0J!
1d!
0c!
#1210000
1(
1]
1J!
0d!
#1220000
0(
1'
0]
1\
1L!
0J!
#1230000
1(
1]
1J!
#1240000
0(
0'
1&
0]
0\
1[
1I!
0L!
0J!
1d!
#1250000
1(
1]
1J!
0d!
#1260000
0(
1'
0]
1\
1L!
0J!
#1270000
1(
1]
1J!
#1280000
0(
0'
0&
0%
0$
0#
0"
1!
0]
0\
0[
0Z
0Y
0X
0W
1V
1P!
0N!
0O!
0K!
0H!
0I!
0L!
0J!
1d!
1M!
0j!
1s!
1f!
1t!
1;!
1u
18
#1290000
1(
1]
1J!
0M!
1S!
0d!
1h!
1u!
0f!
0t!
0;!
1<!
0u
1v
08
1I
#1300000
0(
1'
0]
1\
1L!
0J!
0S!
1U!
1v!
0h!
0u!
0<!
1=!
0v
1w
0I
1:
#1310000
1(
1]
1J!
0U!
1n!
1w!
0v!
0=!
1>!
0w
1x
0:
1K
#1320000
0(
0'
1&
0]
0\
1[
1I!
0L!
0J!
1d!
1c!
0n!
0w!
1x!
1?!
0>!
1y
0x
19
0K
#1330000
1(
1]
1J!
0d!
1q!
1y!
0x!
0?!
1@!
0y
1z
09
1J
#1340000
0(
1'
0]
1\
1L!
0J!
0q!
0y!
0@!
0z
0J
#1350000
1(
1]
1J!
#1360000
0(
0'
0&
1%
0]
0\
0[
1Z
1H!
0I!
0L!
0J!
1d!
1M!
0c!
#1370000
1(
1]
1J!
0M!
1S!
0d!
#1380000
0(
1'
0]
1\
1L!
0J!
0S!
1U!
#1390000
1(
1]
1J!
0U!
1n!
#1400000
0(
0'
1&
0]
0\
1[
1I!
0L!
0J!
1d!
0n!
#1410000
1(
1]
1J!
0d!
#1420000
0(
1'
0]
1\
1L!
0J!
#1430000
1(
1]
1J!
#1440000
0(
0'
0&
0%
1$
0]
0\
0[
0Z
1Y
1K!
0H!
0I!
0L!
0J!
1d!
#1450000
1(
1]
1J!
0d!
#1460000
0(
1'
0]
1\
1L!
0J!
#1470000
1(
1]
1J!
#1480000
0(
0'
1&
0]
0\
1[
1I!
0L!
0J!
1d!
1c!
#1490000
1(
1]
1J!
0d!
#1500000
0(
1'
0]
1\
1L!
0J!
#1510000
1(
1]
1J!
#1520000
0(
0'
0&
1%
0]
0\
0[
1Z
1H!
0I!
0L!
0J!
1d!
0c!
#1530000
1(
1]
1J!
0d!
#1540000
0(
1'
0]
1\
1L!
0J!
#1550000
1(
1]
1J!
#1560000
0(
0'
1&
0]
0\
1[
1I!
0L!
0J!
1d!
#1570000
1(
1]
1J!
0d!
#1580000
0(
1'
0]
1\
1L!
0J!
#1590000
1(
1]
1J!
#1600000
0(
0'
0&
0%
0$
1#
0]
0\
0[
0Z
0Y
1X
1O!
0K!
0H!
0I!
0L!
0J!
1d!
1M!
0s!
1f!
1z!
1A!
1{
12
#1610000
1(
1]
1J!
0M!
1S!
0d!
1h!
0f!
0z!
1{!
1B!
0A!
1|
0{
1E
02
#1620000
0(
1'
0]
1\
1L!
0J!
0S!
1U!
0h!
0{!
0B!
0|
0E
#1630000
1(
1]
1J!
0U!
1n!
#1640000
0(
0'
1&
0]
0\
1[
1I!
0L!
0J!
1d!
1c!
0n!
#1650000
1(
1]
1J!
0d!
1q!
#1660000
0(
1'
0]
1\
1L!
0J!
0q!
#1670000
1(
1]
1J!
#1680000
0(
0'
0&
1%
0]
0\
0[
1Z
1H!
0I!
0L!
0J!
1d!
1M!
0c!
1|!
1}!
1C!
1}
1/
#1690000
1(
1]
1J!
0M!
1S!
0d!
1~!
0}!
0C!
1D!
0}
1~
0/
1,
#1700000
0(
1'
0]
1\
1L!
0J!
0S!
1U!
0~!
0D!
0~
0,
#1710000
1(
1]
1J!
0U!
1n!
1!"
1E!
1F!
1!!
1"!
1+
1.
#1720000
0(
0'
1&
0]
0\
1[
1I!
0L!
0J!
1d!
0n!
0!"
1""
1G!
0E!
0F!
1#!
0!!
0"!
1-
0+
0.
#1730000
1(
1]
1J!
0d!
0""
0G!
0#!
0-
#1740000
0(
1'
0]
1\
1L!
0J!
#1750000
1(
1]
1J!
#1760000
0(
0'
0&
0%
1$
0]
0\
0[
0Z
1Y
1K!
0H!
0I!
0L!
0J!
1d!
0|!
#1770000
1(
1]
1J!
0d!
#1780000
0(
1'
0]
1\
1L!
0J!
#1790000
1(
1]
1J!
#1800000
0(
0'
1&
0]
0\
1[
1I!
0L!
0J!
1d!
1c!
#1810000
1(
1]
1J!
0d!
#1820000
0(
1'
0]
1\
1L!
0J!
#1830000
1(
1]
1J!
#1840000
0(
0'
0&
1%
0]
0\
0[
1Z
1H!
0I!
0L!
0J!
1d!
0c!
1|!
#1850000
1(
1]
1J!
0d!
#1860000
0(
1'
0]
1\
1L!
0J!
#1870000
1(
1]
1J!
#1880000
0(
0'
1&
0]
0\
1[
1I!
0L!
0J!
1d!
#1890000
1(
1]
1J!
0d!
#1900000
0(
1'
0]
1\
1L!
0J!
#1910000
1(
1]
1J!
#1920000
0(
0'
0&
0%
0$
0#
1"
0]
0\
0[
0Z
0Y
0X
1W
1N!
0O!
0K!
0H!
0I!
0L!
0J!
1d!
1M!
0|!
1f!
#1930000
1(
1]
1J!
0M!
1S!
0d!
1h!
0f!
#1940000
0(
1'
0]
1\
1L!
0J!
0S!
1U!
0h!
#1950000
1(
1]
1J!
0U!
1n!
#1960000
0(
0'
1&
0]
0\
1[
1I!
0L!
0J!
1d!
1c!
0n!
#1970000
1(
1]
1J!
0d!
1q!
#1980000
0(
1'
0]
1\
1L!
0J!
0q!
#1990000
1(
1]
1J!
#2000000
0(
0'
0&
1%
0]
0\
0[
1Z
1H!
0I!
0L!
0J!
1d!
1M!
0c!
#2010000
1(
1]
1J!
0M!
1S!
0d!
#2020000
0(
1'
0]
1\
1L!
0J!
0S!
1U!
#2030000
1(
1]
1J!
0U!
1n!
#2040000
0(
0'
1&
0]
0\
1[
1I!
0L!
0J!
1d!
0n!
#2050000
1(
1]
1J!
0d!
#2060000
0(
1'
0]
1\
1L!
0J!
#2070000
1(
1]
1J!
#2080000
0(
0'
0&
0%
1$
0]
0\
0[
0Z
1Y
1K!
0H!
0I!
0L!
0J!
1d!
#2090000
1(
1]
1J!
0d!
#2100000
0(
1'
0]
1\
1L!
0J!
#2110000
1(
1]
1J!
#2120000
0(
0'
1&
0]
0\
1[
1I!
0L!
0J!
1d!
1c!
#2130000
1(
1]
1J!
0d!
#2140000
0(
1'
0]
1\
1L!
0J!
#2150000
1(
1]
1J!
#2160000
0(
0'
0&
1%
0]
0\
0[
1Z
1H!
0I!
0L!
0J!
1d!
0c!
#2170000
1(
1]
1J!
0d!
#2180000
0(
1'
0]
1\
1L!
0J!
#2190000
1(
1]
1J!
#2200000
0(
0'
1&
0]
0\
1[
1I!
0L!
0J!
1d!
#2210000
1(
1]
1J!
0d!
#2220000
0(
1'
0]
1\
1L!
0J!
#2230000
1(
1]
1J!
#2240000
0(
0'
0&
0%
0$
1#
0]
0\
0[
0Z
0Y
1X
1O!
0K!
0H!
0I!
0L!
0J!
1d!
1M!
1f!
#2250000
1(
1]
1J!
0M!
1S!
0d!
1h!
0f!
#2260000
0(
1'
0]
1\
1L!
0J!
0S!
1U!
0h!
#2270000
1(
1]
1J!
0U!
1n!
#2280000
0(
0'
1&
0]
0\
1[
1I!
0L!
0J!
1d!
1c!
0n!
#2290000
1(
1]
1J!
0d!
1q!
#2300000
0(
1'
0]
1\
1L!
0J!
0q!
#2310000
1(
1]
1J!
#2320000
0(
0'
0&
1%
0]
0\
0[
1Z
1H!
0I!
0L!
0J!
1d!
1M!
0c!
#2330000
1(
1]
1J!
0M!
1S!
0d!
#2340000
0(
1'
0]
1\
1L!
0J!
0S!
1U!
#2350000
1(
1]
1J!
0U!
1n!
#2360000
0(
0'
1&
0]
0\
1[
1I!
0L!
0J!
1d!
0n!
#2370000
1(
1]
1J!
0d!
#2380000
0(
1'
0]
1\
1L!
0J!
#2390000
1(
1]
1J!
#2400000
0(
0'
0&
0%
1$
0]
0\
0[
0Z
1Y
1K!
0H!
0I!
0L!
0J!
1d!
#2410000
1(
1]
1J!
0d!
#2420000
0(
1'
0]
1\
1L!
0J!
#2430000
1(
1]
1J!
#2440000
0(
0'
1&
0]
0\
1[
1I!
0L!
0J!
1d!
1c!
#2450000
1(
1]
1J!
0d!
#2460000
0(
1'
0]
1\
1L!
0J!
#2470000
1(
1]
1J!
#2480000
0(
0'
0&
1%
0]
0\
0[
1Z
1H!
0I!
0L!
0J!
1d!
0c!
#2490000
1(
1]
1J!
0d!
#2500000
0(
1'
0]
1\
1L!
0J!
#2510000
1(
1]
1J!
#2520000
0(
0'
1&
0]
0\
1[
1I!
0L!
0J!
1d!
#2530000
1(
1]
1J!
0d!
#2540000
0(
1'
0]
1\
1L!
0J!
#2550000
1(
1]
1J!
