VHDL/Components/OpCodeDecoder/simulation/qsim/OpCodeDecoder.msim.vcd
$comment
	File created using the following command:
		vcd file OpCodeDecoder.msim.vcd -direction
$end
$date
	Sun May 05 19:32:28 2019
$end
$version
	ModelSim Version 10.5b
$end
$timescale
	1ps
$end

$scope module opcodedecoder_vhd_vec_tst $end
$var wire 1 ! InstrOpCode [7] $end
$var wire 1 " InstrOpCode [6] $end
$var wire 1 # InstrOpCode [5] $end
$var wire 1 $ InstrOpCode [4] $end
$var wire 1 % InstrOpCode [3] $end
$var wire 1 & InstrOpCode [2] $end
$var wire 1 ' InstrOpCode [1] $end
$var wire 1 ( InstrOpCode [0] $end
$var wire 1 ) Op_ADS $end
$var wire 1 * Op_ARS $end
$var wire 1 + Op_BCC $end
$var wire 1 , Op_BCS $end
$var wire 1 - Op_BEQ $end
$var wire 1 . Op_BOV $end
$var wire 1 / Op_BRA $end
$var wire 1 0 Op_ENS $end
$var wire 1 1 Op_HCF $end
$var wire 1 2 Op_JSR $end
$var wire 1 3 Op_LDB $end
$var wire 1 4 Op_LDL $end
$var wire 1 5 Op_LDS $end
$var wire 1 6 Op_LIL $end
$var wire 1 7 Op_LIU $end
$var wire 1 8 Op_LPB $end
$var wire 1 9 Op_LPL $end
$var wire 1 : Op_LPS $end
$var wire 1 ; Op_LR1 $end
$var wire 1 < Op_LS1 $end
$var wire 1 = Op_MAO $end
$var wire 1 > Op_MUL $end
$var wire 1 ? Op_NOP $end
$var wire 1 @ Op_ORS $end
$var wire 1 A Op_PSS $end
$var wire 1 B Op_PUS $end
$var wire 1 C Op_RA1 $end
$var wire 1 D Op_RES $end
$var wire 1 E Op_RR1 $end
$var wire 1 F Op_RS1 $end
$var wire 1 G Op_RTS $end
$var wire 1 H Op_SDB $end
$var wire 1 I Op_SDL $end
$var wire 1 J Op_SDS $end
$var wire 1 K Op_SPB $end
$var wire 1 L Op_SPL $end
$var wire 1 M Op_SPS $end
$var wire 1 N Op_XRS $end

$scope module i1 $end
$var wire 1 O gnd $end
$var wire 1 P vcc $end
$var wire 1 Q unknown $end
$var wire 1 R devoe $end
$var wire 1 S devclrn $end
$var wire 1 T devpor $end
$var wire 1 U ww_devoe $end
$var wire 1 V ww_devclrn $end
$var wire 1 W ww_devpor $end
$var wire 1 X ww_InstrOpCode [7] $end
$var wire 1 Y ww_InstrOpCode [6] $end
$var wire 1 Z ww_InstrOpCode [5] $end
$var wire 1 [ ww_InstrOpCode [4] $end
$var wire 1 \ ww_InstrOpCode [3] $end
$var wire 1 ] ww_InstrOpCode [2] $end
$var wire 1 ^ ww_InstrOpCode [1] $end
$var wire 1 _ ww_InstrOpCode [0] $end
$var wire 1 ` ww_Op_HCF $end
$var wire 1 a ww_Op_NOP $end
$var wire 1 b ww_Op_RES $end
$var wire 1 c ww_Op_ADS $end
$var wire 1 d ww_Op_MUL $end
$var wire 1 e ww_Op_MAO $end
$var wire 1 f ww_Op_ORS $end
$var wire 1 g ww_Op_ARS $end
$var wire 1 h ww_Op_XRS $end
$var wire 1 i ww_Op_LS1 $end
$var wire 1 j ww_Op_RS1 $end
$var wire 1 k ww_Op_LR1 $end
$var wire 1 l ww_Op_RR1 $end
$var wire 1 m ww_Op_RA1 $end
$var wire 1 n ww_Op_ENS $end
$var wire 1 o ww_Op_LIL $end
$var wire 1 p ww_Op_LIU $end
$var wire 1 q ww_Op_LDB $end
$var wire 1 r ww_Op_SDB $end
$var wire 1 s ww_Op_LDS $end
$var wire 1 t ww_Op_SDS $end
$var wire 1 u ww_Op_LDL $end
$var wire 1 v ww_Op_SDL $end
$var wire 1 w ww_Op_LPB $end
$var wire 1 x ww_Op_SPB $end
$var wire 1 y ww_Op_LPS $end
$var wire 1 z ww_Op_SPS $end
$var wire 1 { ww_Op_LPL $end
$var wire 1 | ww_Op_SPL $end
$var wire 1 } ww_Op_PSS $end
$var wire 1 ~ ww_Op_PUS $end
$var wire 1 !! ww_Op_JSR $end
$var wire 1 "! ww_Op_RTS $end
$var wire 1 #! ww_Op_BRA $end
$var wire 1 $! ww_Op_BCS $end
$var wire 1 %! ww_Op_BCC $end
$var wire 1 &! ww_Op_BOV $end
$var wire 1 '! ww_Op_BEQ $end
$var wire 1 (! \Op_HCF~output_o\ $end
$var wire 1 )! \Op_NOP~output_o\ $end
$var wire 1 *! \Op_RES~output_o\ $end
$var wire 1 +! \Op_ADS~output_o\ $end
$var wire 1 ,! \Op_MUL~output_o\ $end
$var wire 1 -! \Op_MAO~output_o\ $end
$var wire 1 .! \Op_ORS~output_o\ $end
$var wire 1 /! \Op_ARS~output_o\ $end
$var wire 1 0! \Op_XRS~output_o\ $end
$var wire 1 1! \Op_LS1~output_o\ $end
$var wire 1 2! \Op_RS1~output_o\ $end
$var wire 1 3! \Op_LR1~output_o\ $end
$var wire 1 4! \Op_RR1~output_o\ $end
$var wire 1 5! \Op_RA1~output_o\ $end
$var wire 1 6! \Op_ENS~output_o\ $end
$var wire 1 7! \Op_LIL~output_o\ $end
$var wire 1 8! \Op_LIU~output_o\ $end
$var wire 1 9! \Op_LDB~output_o\ $end
$var wire 1 :! \Op_SDB~output_o\ $end
$var wire 1 ;! \Op_LDS~output_o\ $end
$var wire 1 <! \Op_SDS~output_o\ $end
$var wire 1 =! \Op_LDL~output_o\ $end
$var wire 1 >! \Op_SDL~output_o\ $end
$var wire 1 ?! \Op_LPB~output_o\ $end
$var wire 1 @! \Op_SPB~output_o\ $end
$var wire 1 A! \Op_LPS~output_o\ $end
$var wire 1 B! \Op_SPS~output_o\ $end
$var wire 1 C! \Op_LPL~output_o\ $end
$var wire 1 D! \Op_SPL~output_o\ $end
$var wire 1 E! \Op_PSS~output_o\ $end
$var wire 1 F! \Op_PUS~output_o\ $end
$var wire 1 G! \Op_JSR~output_o\ $end
$var wire 1 H! \Op_RTS~output_o\ $end
$var wire 1 I! \Op_BRA~output_o\ $end
$var wire 1 J! \Op_BCS~output_o\ $end
$var wire 1 K! \Op_BCC~output_o\ $end
$var wire 1 L! \Op_BOV~output_o\ $end
$var wire 1 M! \Op_BEQ~output_o\ $end
$var wire 1 N! \InstrOpCode[5]~input_o\ $end
$var wire 1 O! \InstrOpCode[6]~input_o\ $end
$var wire 1 P! \InstrOpCode[7]~input_o\ $end
$var wire 1 Q! \Op_HCF~0_combout\ $end
$var wire 1 R! \InstrOpCode[1]~input_o\ $end
$var wire 1 S! \InstrOpCode[0]~input_o\ $end
$var wire 1 T! \Equal0~0_combout\ $end
$var wire 1 U! \InstrOpCode[2]~input_o\ $end
$var wire 1 V! \InstrOpCode[4]~input_o\ $end
$var wire 1 W! \Equal0~1_combout\ $end
$var wire 1 X! \InstrOpCode[3]~input_o\ $end
$var wire 1 Y! \Op_HCF~1_combout\ $end
$var wire 1 Z! \Equal1~0_combout\ $end
$var wire 1 [! \Op_NOP~0_combout\ $end
$var wire 1 \! \Op_LR1~0_combout\ $end
$var wire 1 ]! \Op_RES~0_combout\ $end
$var wire 1 ^! \opc_Cat_Decoder|Equal0~0_combout\ $end
$var wire 1 _! \Op_ADS~0_combout\ $end
$var wire 1 `! \Op_MUL~2_combout\ $end
$var wire 1 a! \Op_MAO~0_combout\ $end
$var wire 1 b! \Op_ORS~0_combout\ $end
$var wire 1 c! \Op_RS1~0_combout\ $end
$var wire 1 d! \Op_ARS~0_combout\ $end
$var wire 1 e! \Op_XRS~0_combout\ $end
$var wire 1 f! \Op_RA1~0_combout\ $end
$var wire 1 g! \Op_LS1~0_combout\ $end
$var wire 1 h! \Op_RS1~1_combout\ $end
$var wire 1 i! \Op_LR1~1_combout\ $end
$var wire 1 j! \Op_BOV~0_combout\ $end
$var wire 1 k! \Op_RR1~0_combout\ $end
$var wire 1 l! \Op_RA1~1_combout\ $end
$var wire 1 m! \Equal0~2_combout\ $end
$var wire 1 n! \Op_LIL~0_combout\ $end
$var wire 1 o! \Op_LIU~0_combout\ $end
$var wire 1 p! \opc_Cat_Decoder|Equal0~1_combout\ $end
$var wire 1 q! \Op_LDB~0_combout\ $end
$var wire 1 r! \Op_SDB~2_combout\ $end
$var wire 1 s! \Op_LDS~0_combout\ $end
$var wire 1 t! \Op_SDS~2_combout\ $end
$var wire 1 u! \Op_SDS~3_combout\ $end
$var wire 1 v! \Op_BEQ~0_combout\ $end
$var wire 1 w! \Op_LDL~0_combout\ $end
$var wire 1 x! \Op_LDL~1_combout\ $end
$var wire 1 y! \Op_SDL~0_combout\ $end
$var wire 1 z! \opc_Cat_Decoder|Equal0~2_combout\ $end
$var wire 1 {! \Op_LPB~0_combout\ $end
$var wire 1 |! \Op_SPB~2_combout\ $end
$var wire 1 }! \Op_LPS~0_combout\ $end
$var wire 1 ~! \Op_SPS~2_combout\ $end
$var wire 1 !" \Op_LPL~0_combout\ $end
$var wire 1 "" \Op_LPL~1_combout\ $end
$var wire 1 #" \Op_SPL~0_combout\ $end
$var wire 1 $" \Op_PSS~0_combout\ $end
$var wire 1 %" \Op_PUS~0_combout\ $end
$var wire 1 &" \opc_Cat_Decoder|Equal0~3_combout\ $end
$var wire 1 '" \Op_JSR~0_combout\ $end
$var wire 1 (" \Op_RTS~2_combout\ $end
$var wire 1 )" \Op_BRA~0_combout\ $end
$var wire 1 *" \Op_BCS~0_combout\ $end
$var wire 1 +" \Op_BCC~0_combout\ $end
$var wire 1 ," \Op_BOV~1_combout\ $end
$var wire 1 -" \Op_BEQ~1_combout\ $end
$upscope $end
$upscope $end
$enddefinitions $end
#0
$dumpvars
0)
0*
0+
0,
0-
0.
0/
00
11
02
03
04
05
06
07
08
09
0:
0;
0<
0=
0>
0?
0@
0A
0B
0C
0D
0E
0F
0G
0H
0I
0J
0K
0L
0M
0N
0O
1P
xQ
1R
1S
1T
1U
1V
1W
1`
0a
0b
0c
0d
0e
0f
0g
0h
0i
0j
0k
0l
0m
0n
0o
0p
0q
0r
0s
0t
0u
0v
0w
0x
0y
0z
0{
0|
0}
0~
0!!
0"!
0#!
0$!
0%!
0&!
0'!
1(!
0)!
0*!
0+!
0,!
0-!
0.!
0/!
00!
01!
02!
03!
04!
05!
06!
07!
08!
09!
0:!
0;!
0<!
0=!
0>!
0?!
0@!
0A!
0B!
0C!
0D!
0E!
0F!
0G!
0H!
0I!
0J!
0K!
0L!
0M!
0N!
0O!
0P!
1Q!
0R!
0S!
1T!
0U!
0V!
1W!
0X!
1Y!
0Z!
0[!
0\!
0]!
0^!
0_!
0`!
0a!
0b!
0c!
0d!
0e!
0f!
0g!
0h!
0i!
0j!
0k!
0l!
1m!
0n!
0o!
0p!
0q!
0r!
0s!
0t!
0u!
0v!
0w!
0x!
0y!
0z!
0{!
0|!
0}!
0~!
0!"
0""
0#"
0$"
0%"
0&"
0'"
0("
0)"
0*"
0+"
0,"
0-"
0!
0"
0#
0$
0%
0&
0'
0(
0X
0Y
0Z
0[
0\
0]
0^
0_
$end
#10000
1(
1_
1S!
0T!
1Z!
1c!
0m!
1[!
0Y!
0(!
1)!
0`
1a
01
1?
#20000
0(
1'
0_
1^
1R!
0S!
0Z!
1\!
0c!
1]!
0[!
0)!
1*!
0a
1b
0?
1D
#30000
1(
1_
1S!
0\!
1j!
1t!
0]!
0*!
0b
0D
#40000
0(
0'
1&
0_
0^
1]
1U!
0R!
0S!
1T!
0j!
1m!
0t!
0W!
1v!
0m!
#50000
1(
1_
1S!
0T!
1c!
#60000
0(
1'
0_
1^
1R!
0S!
1\!
0c!
#70000
1(
1_
1S!
0\!
1j!
#80000
0(
0'
0&
1%
0_
0^
0]
1\
1X!
0U!
0R!
0S!
1T!
0j!
1W!
0v!
#90000
1(
1_
1S!
0T!
1c!
#100000
0(
1'
0_
1^
1R!
0S!
1\!
0c!
#110000
1(
1_
1S!
0\!
1j!
#120000
0(
0'
1&
0_
0^
1]
1U!
0R!
0S!
1T!
0j!
0W!
1v!
#130000
1(
1_
1S!
0T!
1c!
#140000
0(
1'
0_
1^
1R!
0S!
1\!
0c!
#150000
1(
1_
1S!
0\!
1j!
#160000
0(
0'
0&
0%
1$
0_
0^
0]
0\
1[
1V!
0X!
0U!
0R!
0S!
1T!
0j!
0v!
#170000
1(
1_
1S!
0T!
1c!
#180000
0(
1'
0_
1^
1R!
0S!
1\!
0c!
#190000
1(
1_
1S!
0\!
1j!
#200000
0(
0'
1&
0_
0^
1]
1U!
0R!
0S!
1T!
0j!
#210000
1(
1_
1S!
0T!
1c!
#220000
0(
1'
0_
1^
1R!
0S!
1\!
0c!
#230000
1(
1_
1S!
0\!
1j!
#240000
0(
0'
0&
1%
0_
0^
0]
1\
1X!
0U!
0R!
0S!
1T!
0j!
#250000
1(
1_
1S!
0T!
1c!
#260000
0(
1'
0_
1^
1R!
0S!
1\!
0c!
#270000
1(
1_
1S!
0\!
1j!
#280000
0(
0'
1&
0_
0^
1]
1U!
0R!
0S!
1T!
0j!
#290000
1(
1_
1S!
0T!
1c!
#300000
0(
1'
0_
1^
1R!
0S!
1\!
0c!
#310000
1(
1_
1S!
0\!
1j!
#320000
0(
0'
0&
0%
0$
1#
0_
0^
0]
0\
0[
1Z
1N!
0V!
0X!
0U!
0R!
0S!
1T!
0j!
1W!
0Q!
1^!
1f!
1m!
1_!
1+!
1c
1)
#330000
1(
1_
1S!
0T!
1Z!
1c!
0m!
1`!
0_!
0+!
1,!
0c
1d
0)
1>
#340000
0(
1'
0_
1^
1R!
0S!
0Z!
1\!
0c!
1a!
0`!
0,!
1-!
0d
1e
0>
1=
#350000
1(
1_
1S!
0\!
1j!
1t!
0a!
0-!
0e
0=
#360000
0(
0'
1&
0_
0^
1]
1U!
0R!
0S!
1T!
0j!
1m!
0t!
0W!
1v!
0m!
#370000
1(
1_
1S!
0T!
1c!
#380000
0(
1'
0_
1^
1R!
0S!
1\!
0c!
#390000
1(
1_
1S!
0\!
1j!
#400000
0(
0'
0&
1%
0_
0^
0]
1\
1X!
0U!
0R!
0S!
1T!
0j!
1W!
0v!
0f!
1b!
1.!
1f
1@
#410000
1(
1_
1S!
0T!
1c!
1d!
0b!
0.!
1/!
0f
1g
0@
1*
#420000
0(
1'
0_
1^
1R!
0S!
1\!
0c!
0d!
1e!
10!
0/!
1h
0g
1N
0*
#430000
1(
1_
1S!
0\!
1j!
0e!
00!
0h
0N
#440000
0(
0'
1&
0_
0^
1]
1U!
0R!
0S!
1T!
0j!
0W!
1v!
#450000
1(
1_
1S!
0T!
1c!
#460000
0(
1'
0_
1^
1R!
0S!
1\!
0c!
#470000
1(
1_
1S!
0\!
1j!
#480000
0(
0'
0&
0%
1$
0_
0^
0]
0\
1[
1V!
0X!
0U!
0R!
0S!
1T!
0j!
1f!
0v!
1g!
11!
1i
1<
#490000
1(
1_
1S!
0T!
1c!
1h!
0g!
01!
12!
0i
1j
0<
1F
#500000
0(
1'
0_
1^
1R!
0S!
1\!
0c!
0h!
1i!
13!
02!
1k
0j
1;
0F
#510000
1(
1_
1S!
0\!
1j!
1k!
0i!
03!
14!
0k
1l
0;
1E
#520000
0(
0'
1&
0_
0^
1]
1U!
0R!
0S!
1T!
0j!
0k!
1l!
04!
0l
15!
0E
1m
1C
#530000
1(
1_
1S!
0T!
1c!
0l!
05!
0m
0C
#540000
0(
1'
0_
1^
1R!
0S!
1\!
0c!
#550000
1(
1_
1S!
0\!
1j!
#560000
0(
0'
0&
1%
0_
0^
0]
1\
1X!
0U!
0R!
0S!
1T!
0j!
1k!
0f!
0k!
14!
1l
04!
1E
0l
0E
#570000
1(
1_
1S!
0T!
1c!
#580000
0(
1'
0_
1^
1R!
0S!
1\!
0c!
#590000
1(
1_
1S!
0\!
1j!
#600000
0(
0'
1&
0_
0^
1]
1U!
0R!
0S!
1T!
0j!
#610000
1(
1_
1S!
0T!
1c!
#620000
0(
1'
0_
1^
1R!
0S!
1\!
0c!
#630000
1(
1_
1S!
0\!
1j!
#640000
0(
0'
0&
0%
0$
0#
1"
0_
0^
0]
0\
0[
0Z
1Y
1O!
0N!
0V!
0X!
0U!
0R!
0S!
1T!
0j!
1W!
0^!
1m!
1n!
17!
1o
16
#650000
1(
1_
1S!
0T!
1Z!
1c!
0m!
0n!
1o!
18!
07!
1p
0o
17
06
#660000
0(
1'
0_
1^
1R!
0S!
0Z!
1\!
0c!
0o!
08!
0p
07
#670000
1(
1_
1S!
0\!
1j!
1t!
#680000
0(
0'
1&
0_
0^
1]
1U!
0R!
0S!
1T!
0j!
1m!
0t!
0W!
1v!
0m!
1n!
0n!
17!
1o
07!
16
0o
06
#690000
1(
1_
1S!
0T!
1c!
#700000
0(
1'
0_
1^
1R!
0S!
1\!
0c!
#710000
1(
1_
1S!
0\!
1j!
#720000
0(
0'
0&
1%
0_
0^
0]
1\
1X!
0U!
0R!
0S!
1T!
0j!
1W!
0v!
#730000
1(
1_
1S!
0T!
1c!
#740000
0(
1'
0_
1^
1R!
0S!
1\!
0c!
#750000
1(
1_
1S!
0\!
1j!
#760000
0(
0'
1&
0_
0^
1]
1U!
0R!
0S!
1T!
0j!
0W!
1v!
#770000
1(
1_
1S!
0T!
1c!
#780000
0(
1'
0_
1^
1R!
0S!
1\!
0c!
#790000
1(
1_
1S!
0\!
1j!
#800000
0(
0'
0&
0%
1$
0_
0^
0]
0\
1[
1V!
0X!
0U!
0R!
0S!
1T!
0j!
0v!
#810000
1(
1_
1S!
0T!
1c!
#820000
0(
1'
0_
1^
1R!
0S!
1\!
0c!
#830000
1(
1_
1S!
0\!
1j!
#840000
0(
0'
1&
0_
0^
1]
1U!
0R!
0S!
1T!
0j!
#850000
1(
1_
1S!
0T!
1c!
#860000
0(
1'
0_
1^
1R!
0S!
1\!
0c!
#870000
1(
1_
1S!
0\!
1j!
#880000
0(
0'
0&
1%
0_
0^
0]
1\
1X!
0U!
0R!
0S!
1T!
0j!
#890000
1(
1_
1S!
0T!
1c!
#900000
0(
1'
0_
1^
1R!
0S!
1\!
0c!
#910000
1(
1_
1S!
0\!
1j!
#920000
0(
0'
1&
0_
0^
1]
1U!
0R!
0S!
1T!
0j!
#930000
1(
1_
1S!
0T!
1c!
#940000
0(
1'
0_
1^
1R!
0S!
1\!
0c!
#950000
1(
1_
1S!
0\!
1j!
#960000
0(
0'
0&
0%
0$
1#
0_
0^
0]
0\
0[
1Z
1N!
0V!
0X!
0U!
0R!
0S!
1T!
0j!
1W!
1p!
1m!
1q!
19!
1q
13
#970000
1(
1_
1S!
0T!
1Z!
1c!
0m!
1r!
0q!
09!
1:!
0q
1r
03
1H
#980000
0(
1'
0_
1^
1R!
0S!
0Z!
1\!
0c!
1s!
0r!
0:!
1;!
0r
1s
0H
15
#990000
1(
1_
1S!
0\!
1j!
1t!
1u!
0s!
0;!
1<!
0s
1t
05
1J
#1000000
0(
0'
1&
0_
0^
1]
1U!
0R!
0S!
1T!
0j!
1m!
0t!
0W!
1v!
1w!
0m!
0u!
1x!
0<!
0t
1=!
0J
1u
14
#1010000
1(
1_
1S!
0T!
1c!
0x!
1y!
1>!
0=!
1v
0u
1I
04
#1020000
0(
1'
0_
1^
1R!
0S!
1x!
0y!
1\!
0c!
0w!
0x!
0>!
1=!
0v
1u
0=!
0I
14
0u
04
#1030000
1(
1_
1S!
0\!
1j!
#1040000
0(
0'
0&
1%
0_
0^
0]
1\
1X!
0U!
0R!
0S!
1T!
0j!
1W!
0v!
#1050000
1(
1_
1S!
0T!
1c!
#1060000
0(
1'
0_
1^
1R!
0S!
1\!
0c!
#1070000
1(
1_
1S!
0\!
1j!
#1080000
0(
0'
1&
0_
0^
1]
1U!
0R!
0S!
1T!
0j!
0W!
1v!
#1090000
1(
1_
1S!
0T!
1c!
#1100000
0(
1'
0_
1^
1R!
0S!
1\!
0c!
#1110000
1(
1_
1S!
0\!
1j!
#1120000
0(
0'
0&
0%
1$
0_
0^
0]
0\
1[
1V!
0X!
0U!
0R!
0S!
1T!
0j!
1w!
0v!
0w!
1x!
0x!
1=!
1u
0=!
14
0u
04
#1130000
1(
1_
1S!
0T!
1c!
#1140000
0(
1'
0_
1^
1R!
0S!
1\!
0c!
#1150000
1(
1_
1S!
0\!
1j!
#1160000
0(
0'
1&
0_
0^
1]
1U!
0R!
0S!
1T!
0j!
#1170000
1(
1_
1S!
0T!
1c!
#1180000
0(
1'
0_
1^
1R!
0S!
1\!
0c!
#1190000
1(
1_
1S!
0\!
1j!
#1200000
0(
0'
0&
1%
0_
0^
0]
1\
1X!
0U!
0R!
0S!
1T!
0j!
#1210000
1(
1_
1S!
0T!
1c!
#1220000
0(
1'
0_
1^
1R!
0S!
1\!
0c!
#1230000
1(
1_
1S!
0\!
1j!
#1240000
0(
0'
1&
0_
0^
1]
1U!
0R!
0S!
1T!
0j!
#1250000
1(
1_
1S!
0T!
1c!
#1260000
0(
1'
0_
1^
1R!
0S!
1\!
0c!
#1270000
1(
1_
1S!
0\!
1j!
#1280000
0(
0'
0&
0%
0$
0#
0"
1!
0_
0^
0]
0\
0[
0Z
0Y
1X
1P!
0O!
0N!
0V!
0X!
0U!
0R!
0S!
1T!
0j!
1W!
0p!
1z!
1m!
1{!
1?!
1w
18
#1290000
1(
1_
1S!
0T!
1Z!
1c!
0m!
1|!
0{!
0?!
1@!
0w
1x
08
1K
#1300000
0(
1'
0_
1^
1R!
0S!
0Z!
1\!
0c!
1}!
0|!
0@!
1A!
0x
1y
0K
1:
#1310000
1(
1_
1S!
0\!
1j!
1t!
1~!
0}!
0A!
1B!
0y
1z
0:
1M
#1320000
0(
0'
1&
0_
0^
1]
1U!
0R!
0S!
1T!
0j!
1m!
0t!
0W!
1v!
1!"
0m!
0~!
1""
0B!
0z
1C!
0M
1{
19
#1330000
1(
1_
1S!
0T!
1c!
0""
1#"
1D!
0C!
1|
0{
1L
09
#1340000
0(
1'
0_
1^
1R!
0S!
1""
0#"
1\!
0c!
0!"
0""
0D!
1C!
0|
1{
0C!
0L
19
0{
09
#1350000
1(
1_
1S!
0\!
1j!
#1360000
0(
0'
0&
1%
0_
0^
0]
1\
1X!
0U!
0R!
0S!
1T!
0j!
1W!
0v!
#1370000
1(
1_
1S!
0T!
1c!
#1380000
0(
1'
0_
1^
1R!
0S!
1\!
0c!
#1390000
1(
1_
1S!
0\!
1j!
#1400000
0(
0'
1&
0_
0^
1]
1U!
0R!
0S!
1T!
0j!
0W!
1v!
#1410000
1(
1_
1S!
0T!
1c!
#1420000
0(
1'
0_
1^
1R!
0S!
1\!
0c!
#1430000
1(
1_
1S!
0\!
1j!
#1440000
0(
0'
0&
0%
1$
0_
0^
0]
0\
1[
1V!
0X!
0U!
0R!
0S!
1T!
0j!
1!"
0v!
0!"
1""
0""
1C!
1{
0C!
19
0{
09
#1450000
1(
1_
1S!
0T!
1c!
#1460000
0(
1'
0_
1^
1R!
0S!
1\!
0c!
#1470000
1(
1_
1S!
0\!
1j!
#1480000
0(
0'
1&
0_
0^
1]
1U!
0R!
0S!
1T!
0j!
#1490000
1(
1_
1S!
0T!
1c!
#1500000
0(
1'
0_
1^
1R!
0S!
1\!
0c!
#1510000
1(
1_
1S!
0\!
1j!
#1520000
0(
0'
0&
1%
0_
0^
0]
1\
1X!
0U!
0R!
0S!
1T!
0j!
#1530000
1(
1_
1S!
0T!
1c!
#1540000
0(
1'
0_
1^
1R!
0S!
1\!
0c!
#1550000
1(
1_
1S!
0\!
1j!
#1560000
0(
0'
1&
0_
0^
1]
1U!
0R!
0S!
1T!
0j!
#1570000
1(
1_
1S!
0T!
1c!
#1580000
0(
1'
0_
1^
1R!
0S!
1\!
0c!
#1590000
1(
1_
1S!
0\!
1j!
#1600000
0(
0'
0&
0%
0$
1#
0_
0^
0]
0\
0[
1Z
1N!
0V!
0X!
0U!
0R!
0S!
1T!
0j!
1W!
0z!
1m!
1$"
1E!
1}
1A
#1610000
1(
1_
1S!
0T!
1Z!
1c!
0m!
0$"
1%"
1F!
0E!
1~
0}
1B
0A
#1620000
0(
1'
0_
1^
1R!
0S!
0Z!
1\!
0c!
0%"
0F!
0~
0B
#1630000
1(
1_
1S!
0\!
1j!
1t!
#1640000
0(
0'
1&
0_
0^
1]
1U!
0R!
0S!
1T!
0j!
1m!
0t!
0W!
1v!
0m!
1$"
0$"
1E!
1}
0E!
1A
0}
0A
#1650000
1(
1_
1S!
0T!
1c!
#1660000
0(
1'
0_
1^
1R!
0S!
1\!
0c!
#1670000
1(
1_
1S!
0\!
1j!
#1680000
0(
0'
0&
1%
0_
0^
0]
1\
1X!
0U!
0R!
0S!
1T!
0j!
1W!
0v!
#1690000
1(
1_
1S!
0T!
1c!
#1700000
0(
1'
0_
1^
1R!
0S!
1\!
0c!
#1710000
1(
1_
1S!
0\!
1j!
#1720000
0(
0'
1&
0_
0^
1]
1U!
0R!
0S!
1T!
0j!
0W!
1v!
#1730000
1(
1_
1S!
0T!
1c!
#1740000
0(
1'
0_
1^
1R!
0S!
1\!
0c!
#1750000
1(
1_
1S!
0\!
1j!
#1760000
0(
0'
0&
0%
1$
0_
0^
0]
0\
1[
1V!
0X!
0U!
0R!
0S!
1T!
0j!
0v!
#1770000
1(
1_
1S!
0T!
1c!
#1780000
0(
1'
0_
1^
1R!
0S!
1\!
0c!
#1790000
1(
1_
1S!
0\!
1j!
#1800000
0(
0'
1&
0_
0^
1]
1U!
0R!
0S!
1T!
0j!
#1810000
1(
1_
1S!
0T!
1c!
#1820000
0(
1'
0_
1^
1R!
0S!
1\!
0c!
#1830000
1(
1_
1S!
0\!
1j!
#1840000
0(
0'
0&
1%
0_
0^
0]
1\
1X!
0U!
0R!
0S!
1T!
0j!
#1850000
1(
1_
1S!
0T!
1c!
#1860000
0(
1'
0_
1^
1R!
0S!
1\!
0c!
#1870000
1(
1_
1S!
0\!
1j!
#1880000
0(
0'
1&
0_
0^
1]
1U!
0R!
0S!
1T!
0j!
#1890000
1(
1_
1S!
0T!
1c!
#1900000
0(
1'
0_
1^
1R!
0S!
1\!
0c!
#1910000
1(
1_
1S!
0\!
1j!
#1920000
0(
0'
0&
0%
0$
0#
1"
0_
0^
0]
0\
0[
0Z
1Y
1O!
0N!
0V!
0X!
0U!
0R!
0S!
1T!
0j!
1W!
1&"
1m!
1'"
1G!
1!!
12
#1930000
1(
1_
1S!
0T!
1Z!
1c!
0m!
1("
0'"
0G!
1H!
0!!
1"!
02
1G
#1940000
0(
1'
0_
1^
1R!
0S!
0Z!
1\!
0c!
0("
0H!
0"!
0G
#1950000
1(
1_
1S!
0\!
1j!
1t!
#1960000
0(
0'
1&
0_
0^
1]
1U!
0R!
0S!
1T!
0j!
1m!
0t!
0W!
1v!
0m!
#1970000
1(
1_
1S!
0T!
1c!
#1980000
0(
1'
0_
1^
1R!
0S!
1\!
0c!
#1990000
1(
1_
1S!
0\!
1j!
#2000000
0(
0'
0&
1%
0_
0^
0]
1\
1X!
0U!
0R!
0S!
1T!
0j!
1W!
0v!
1)"
1I!
1#!
1/
#2010000
1(
1_
1S!
0T!
1c!
1*"
0)"
0I!
1J!
0#!
1$!
0/
1,
#2020000
0(
1'
0_
1^
1R!
0S!
1\!
0c!
0*"
1+"
1K!
0J!
1%!
0$!
1+
0,
#2030000
1(
1_
1S!
0\!
1j!
1,"
0+"
0K!
1L!
0%!
1&!
0+
1.
#2040000
0(
0'
1&
0_
0^
1]
1U!
0R!
0S!
1T!
0j!
0W!
1v!
0,"
1-"
1M!
0L!
1'!
0&!
1-
0.
#2050000
1(
1_
1S!
0T!
1c!
0-"
0M!
0'!
0-
#2060000
0(
1'
0_
1^
1R!
0S!
1\!
0c!
#2070000
1(
1_
1S!
0\!
1j!
#2080000
0(
0'
0&
0%
1$
0_
0^
0]
0\
1[
1V!
0X!
0U!
0R!
0S!
1T!
0j!
0v!
#2090000
1(
1_
1S!
0T!
1c!
#2100000
0(
1'
0_
1^
1R!
0S!
1\!
0c!
#2110000
1(
1_
1S!
0\!
1j!
#2120000
0(
0'
1&
0_
0^
1]
1U!
0R!
0S!
1T!
0j!
#2130000
1(
1_
1S!
0T!
1c!
#2140000
0(
1'
0_
1^
1R!
0S!
1\!
0c!
#2150000
1(
1_
1S!
0\!
1j!
#2160000
0(
0'
0&
1%
0_
0^
0]
1\
1X!
0U!
0R!
0S!
1T!
0j!
#2170000
1(
1_
1S!
0T!
1c!
#2180000
0(
1'
0_
1^
1R!
0S!
1\!
0c!
#2190000
1(
1_
1S!
0\!
1j!
#2200000
0(
0'
1&
0_
0^
1]
1U!
0R!
0S!
1T!
0j!
#2210000
1(
1_
1S!
0T!
1c!
#2220000
0(
1'
0_
1^
1R!
0S!
1\!
0c!
#2230000
1(
1_
1S!
0\!
1j!
#2240000
0(
0'
0&
0%
0$
1#
0_
0^
0]
0\
0[
1Z
1N!
0V!
0X!
0U!
0R!
0S!
1T!
0j!
1W!
0&"
1m!
#2250000
1(
1_
1S!
0T!
1Z!
1c!
0m!
#2260000
0(
1'
0_
1^
1R!
0S!
0Z!
1\!
0c!
#2270000
1(
1_
1S!
0\!
1j!
1t!
#2280000
0(
0'
1&
0_
0^
1]
1U!
0R!
0S!
1T!
0j!
1m!
0t!
0W!
1v!
0m!
#2290000
1(
1_
1S!
0T!
1c!
#2300000
0(
1'
0_
1^
1R!
0S!
1\!
0c!
#2310000
1(
1_
1S!
0\!
1j!
#2320000
0(
0'
0&
1%
0_
0^
0]
1\
1X!
0U!
0R!
0S!
1T!
0j!
1W!
0v!
#2330000
1(
1_
1S!
0T!
1c!
#2340000
0(
1'
0_
1^
1R!
0S!
1\!
0c!
#2350000
1(
1_
1S!
0\!
1j!
#2360000
0(
0'
1&
0_
0^
1]
1U!
0R!
0S!
1T!
0j!
0W!
1v!
#2370000
1(
1_
1S!
0T!
1c!
#2380000
0(
1'
0_
1^
1R!
0S!
1\!
0c!
#2390000
1(
1_
1S!
0\!
1j!
