VHDL/Components/I2C/simulation/qsim/I2C.msim.vcd
$comment
	File created using the following command:
		vcd file I2C.msim.vcd -direction
$end
$date
	Mon Jul 08 15:50:11 2019
$end
$version
	ModelSim Version 10.5b
$end
$timescale
	1ps
$end

$scope module i2c_vhd_vec_tst $end
$var wire 1 ! ADRSEL $end
$var wire 1 " CPU_CLK $end
$var wire 1 # DATA_IN [7] $end
$var wire 1 $ DATA_IN [6] $end
$var wire 1 % DATA_IN [5] $end
$var wire 1 & DATA_IN [4] $end
$var wire 1 ' DATA_IN [3] $end
$var wire 1 ( DATA_IN [2] $end
$var wire 1 ) DATA_IN [1] $end
$var wire 1 * DATA_IN [0] $end
$var wire 1 + DATA_OUT [7] $end
$var wire 1 , DATA_OUT [6] $end
$var wire 1 - DATA_OUT [5] $end
$var wire 1 . DATA_OUT [4] $end
$var wire 1 / DATA_OUT [3] $end
$var wire 1 0 DATA_OUT [2] $end
$var wire 1 1 DATA_OUT [1] $end
$var wire 1 2 DATA_OUT [0] $end
$var wire 1 3 ENA $end
$var wire 1 4 I2C_4XCLK $end
$var wire 1 5 I2C_SCL $end
$var wire 1 6 I2C_SDA $end
$var wire 1 7 RESET $end
$var wire 1 8 WR $end

$scope module i1 $end
$var wire 1 9 gnd $end
$var wire 1 : vcc $end
$var wire 1 ; unknown $end
$var wire 1 < devoe $end
$var wire 1 = devclrn $end
$var wire 1 > devpor $end
$var wire 1 ? ww_devoe $end
$var wire 1 @ ww_devclrn $end
$var wire 1 A ww_devpor $end
$var wire 1 B ww_RESET $end
$var wire 1 C ww_CPU_CLK $end
$var wire 1 D ww_I2C_4XCLK $end
$var wire 1 E ww_ENA $end
$var wire 1 F ww_ADRSEL $end
$var wire 1 G ww_DATA_IN [7] $end
$var wire 1 H ww_DATA_IN [6] $end
$var wire 1 I ww_DATA_IN [5] $end
$var wire 1 J ww_DATA_IN [4] $end
$var wire 1 K ww_DATA_IN [3] $end
$var wire 1 L ww_DATA_IN [2] $end
$var wire 1 M ww_DATA_IN [1] $end
$var wire 1 N ww_DATA_IN [0] $end
$var wire 1 O ww_DATA_OUT [7] $end
$var wire 1 P ww_DATA_OUT [6] $end
$var wire 1 Q ww_DATA_OUT [5] $end
$var wire 1 R ww_DATA_OUT [4] $end
$var wire 1 S ww_DATA_OUT [3] $end
$var wire 1 T ww_DATA_OUT [2] $end
$var wire 1 U ww_DATA_OUT [1] $end
$var wire 1 V ww_DATA_OUT [0] $end
$var wire 1 W ww_WR $end
$var wire 1 X \RESET~inputclkctrl_INCLK_bus\ [3] $end
$var wire 1 Y \RESET~inputclkctrl_INCLK_bus\ [2] $end
$var wire 1 Z \RESET~inputclkctrl_INCLK_bus\ [1] $end
$var wire 1 [ \RESET~inputclkctrl_INCLK_bus\ [0] $end
$var wire 1 \ \CPU_CLK~inputclkctrl_INCLK_bus\ [3] $end
$var wire 1 ] \CPU_CLK~inputclkctrl_INCLK_bus\ [2] $end
$var wire 1 ^ \CPU_CLK~inputclkctrl_INCLK_bus\ [1] $end
$var wire 1 _ \CPU_CLK~inputclkctrl_INCLK_bus\ [0] $end
$var wire 1 ` \I2C_4XCLK~inputclkctrl_INCLK_bus\ [3] $end
$var wire 1 a \I2C_4XCLK~inputclkctrl_INCLK_bus\ [2] $end
$var wire 1 b \I2C_4XCLK~inputclkctrl_INCLK_bus\ [1] $end
$var wire 1 c \I2C_4XCLK~inputclkctrl_INCLK_bus\ [0] $end
$var wire 1 d \I2C_SCL~input_o\ $end
$var wire 1 e \I2C_SCL~output_o\ $end
$var wire 1 f \I2C_SDA~output_o\ $end
$var wire 1 g \DATA_OUT[0]~output_o\ $end
$var wire 1 h \DATA_OUT[1]~output_o\ $end
$var wire 1 i \DATA_OUT[2]~output_o\ $end
$var wire 1 j \DATA_OUT[3]~output_o\ $end
$var wire 1 k \DATA_OUT[4]~output_o\ $end
$var wire 1 l \DATA_OUT[5]~output_o\ $end
$var wire 1 m \DATA_OUT[6]~output_o\ $end
$var wire 1 n \DATA_OUT[7]~output_o\ $end
$var wire 1 o \I2C_4XCLK~input_o\ $end
$var wire 1 p \I2C_4XCLK~inputclkctrl_outclk\ $end
$var wire 1 q \phase~0_combout\ $end
$var wire 1 r \RESET~input_o\ $end
$var wire 1 s \RESET~inputclkctrl_outclk\ $end
$var wire 1 t \ENA~input_o\ $end
$var wire 1 u \nbit[0]~0_combout\ $end
$var wire 1 v \Add0~0_combout\ $end
$var wire 1 w \state~24_combout\ $end
$var wire 1 x \Mux11~0_combout\ $end
$var wire 1 y \state.s_data~0_combout\ $end
$var wire 1 z \CPU_CLK~input_o\ $end
$var wire 1 { \CPU_CLK~inputclkctrl_outclk\ $end
$var wire 1 | \DATA_IN[0]~input_o\ $end
$var wire 1 } \ADRSEL~input_o\ $end
$var wire 1 ~ \WR~input_o\ $end
$var wire 1 !! \mode[1]~0_combout\ $end
$var wire 1 "! \DATA_IN[1]~input_o\ $end
$var wire 1 #! \go~feeder_combout\ $end
$var wire 1 $! \process_1~1_combout\ $end
$var wire 1 %! \process_1~2_combout\ $end
$var wire 1 &! \go~q\ $end
$var wire 1 '! \state~19_combout\ $end
$var wire 1 (! \state.s_data~q\ $end
$var wire 1 )! \nbit[0]~1_combout\ $end
$var wire 1 *! \nbit[0]~3_combout\ $end
$var wire 1 +! \nbit[0]~4_combout\ $end
$var wire 1 ,! \Add1~1_combout\ $end
$var wire 1 -! \Add1~0_combout\ $end
$var wire 1 .! \nbit[2]~2_combout\ $end
$var wire 1 /! \state~20_combout\ $end
$var wire 1 0! \state.s_ack~q\ $end
$var wire 1 1! \state.s_stop~0_combout\ $end
$var wire 1 2! \state.s_stop~1_combout\ $end
$var wire 1 3! \state.s_stop~q\ $end
$var wire 1 4! \state~18_combout\ $end
$var wire 1 5! \state~23_combout\ $end
$var wire 1 6! \state.s_idle~feeder_combout\ $end
$var wire 1 7! \state.s_idle~q\ $end
$var wire 1 8! \state~21_combout\ $end
$var wire 1 9! \state~22_combout\ $end
$var wire 1 :! \state.s_start~q\ $end
$var wire 1 ;! \scl~0_combout\ $end
$var wire 1 <! \sda~0_combout\ $end
$var wire 1 =! \scl~1_combout\ $end
$var wire 1 >! \ack~2_combout\ $end
$var wire 1 ?! \scl~q\ $end
$var wire 1 @! \sda~4_combout\ $end
$var wire 1 A! \rw_bit~0_combout\ $end
$var wire 1 B! \data_buf[0]~feeder_combout\ $end
$var wire 1 C! \rw_flag~0_combout\ $end
$var wire 1 D! \rw_flag~1_combout\ $end
$var wire 1 E! \rw_flag~q\ $end
$var wire 1 F! \rw_bit~1_combout\ $end
$var wire 1 G! \rw_bit~q\ $end
$var wire 1 H! \DATA_IN[7]~input_o\ $end
$var wire 1 I! \DATA_IN[6]~input_o\ $end
$var wire 1 J! \data_buf[6]~feeder_combout\ $end
$var wire 1 K! \DATA_IN[5]~input_o\ $end
$var wire 1 L! \DATA_IN[3]~input_o\ $end
$var wire 1 M! \data_buf[3]~feeder_combout\ $end
$var wire 1 N! \I2C_SDA~input_o\ $end
$var wire 1 O! \shift_reg~0_combout\ $end
$var wire 1 P! \shift_reg[0]~1_combout\ $end
$var wire 1 Q! \shift_reg~2_combout\ $end
$var wire 1 R! \DATA_IN[2]~input_o\ $end
$var wire 1 S! \data_buf[2]~feeder_combout\ $end
$var wire 1 T! \shift_reg~3_combout\ $end
$var wire 1 U! \shift_reg~4_combout\ $end
$var wire 1 V! \DATA_IN[4]~input_o\ $end
$var wire 1 W! \data_buf[4]~feeder_combout\ $end
$var wire 1 X! \shift_reg~5_combout\ $end
$var wire 1 Y! \shift_reg~6_combout\ $end
$var wire 1 Z! \shift_reg~7_combout\ $end
$var wire 1 [! \shift_reg~8_combout\ $end
$var wire 1 \! \sda~1_combout\ $end
$var wire 1 ]! \sda~2_combout\ $end
$var wire 1 ^! \sda~3_combout\ $end
$var wire 1 _! \sda~5_combout\ $end
$var wire 1 `! \sda~q\ $end
$var wire 1 a! \DATA_OUT~0_combout\ $end
$var wire 1 b! \ack~0_combout\ $end
$var wire 1 c! \ack~1_combout\ $end
$var wire 1 d! \ack~q\ $end
$var wire 1 e! \DATA_OUT~1_combout\ $end
$var wire 1 f! \DATA_OUT~2_combout\ $end
$var wire 1 g! \DATA_OUT~3_combout\ $end
$var wire 1 h! \DATA_OUT~4_combout\ $end
$var wire 1 i! \DATA_OUT~5_combout\ $end
$var wire 1 j! \DATA_OUT~6_combout\ $end
$var wire 1 k! \DATA_OUT~7_combout\ $end
$var wire 1 l! phase [1] $end
$var wire 1 m! phase [0] $end
$var wire 1 n! nbit [2] $end
$var wire 1 o! nbit [1] $end
$var wire 1 p! nbit [0] $end
$var wire 1 q! shift_reg [7] $end
$var wire 1 r! shift_reg [6] $end
$var wire 1 s! shift_reg [5] $end
$var wire 1 t! shift_reg [4] $end
$var wire 1 u! shift_reg [3] $end
$var wire 1 v! shift_reg [2] $end
$var wire 1 w! shift_reg [1] $end
$var wire 1 x! shift_reg [0] $end
$var wire 1 y! data_buf [7] $end
$var wire 1 z! data_buf [6] $end
$var wire 1 {! data_buf [5] $end
$var wire 1 |! data_buf [4] $end
$var wire 1 }! data_buf [3] $end
$var wire 1 ~! data_buf [2] $end
$var wire 1 !" data_buf [1] $end
$var wire 1 "" data_buf [0] $end
$var wire 1 #" mode [1] $end
$var wire 1 $" mode [0] $end
$var wire 1 %" \ALT_INV_state.s_idle~q\ $end
$var wire 1 &" \ALT_INV_RESET~inputclkctrl_outclk\ $end
$var wire 1 '" \ALT_INV_sda~q\ $end
$var wire 1 (" \ALT_INV_scl~q\ $end
$var wire 1 )" \ALT_INV_process_1~1_combout\ $end
$upscope $end
$upscope $end
$enddefinitions $end
#0
$dumpvars
0!
0"
03
04
15
16
17
08
09
1:
x;
1<
1=
1>
1?
1@
1A
1B
0C
0D
0E
0F
0W
1d
ze
zf
0g
0h
0i
0j
0k
0l
0m
0n
0o
0p
0q
1r
1s
0t
0u
0v
0w
0x
0y
0z
0{
0|
0}
0~
0!!
0"!
1#!
1$!
0%!
0&!
0'!
0(!
0)!
0*!
0+!
0,!
0-!
0.!
0/!
00!
01!
02!
03!
14!
15!
16!
07!
08!
09!
0:!
0;!
1<!
0=!
0>!
0?!
0@!
0A!
0B!
0C!
0D!
0E!
0F!
0G!
0H!
0I!
0J!
0K!
0L!
0M!
1N!
0O!
0P!
0Q!
0R!
0S!
0T!
0U!
0V!
0W!
0X!
0Y!
0Z!
0[!
0\!
0]!
0^!
0_!
0`!
0a!
0b!
0c!
0d!
0e!
0f!
0g!
0h!
0i!
0j!
0k!
1%"
0&"
1'"
1("
0)"
0#
0$
0%
0&
0'
0(
0)
0*
0G
0H
0I
0J
0K
0L
0M
0N
0O
0P
0Q
0R
0S
0T
0U
0V
0l!
0m!
0n!
0o!
0p!
0q!
0r!
0s!
0t!
0u!
0v!
0w!
0x!
0y!
0z!
0{!
0|!
0}!
0~!
0!"
0""
0#"
0$"
1`
1a
1b
0c
1X
1Y
1Z
1[
1\
1]
1^
0_
0+
0,
0-
0.
0/
00
01
02
$end
#10000
1"
1C
1z
1_
1{
#20000
0"
0C
0z
0_
0{
#30000
1"
1C
1z
1_
1{
#40000
0"
0C
0z
0_
0{
#50000
1"
1C
1z
1_
1{
#60000
0"
0C
0z
0_
0{
#70000
1"
1C
1z
1_
1{
#80000
0"
0C
0z
0_
0{
#90000
1"
1C
1z
1_
1{
#100000
0"
0C
0z
0_
0{
#110000
1"
1C
1z
1_
1{
#120000
0"
0C
0z
0_
0{
#130000
1"
1C
1z
1_
1{
#140000
0"
0C
0z
0_
0{
#150000
1"
1C
1z
1_
1{
#160000
0"
0C
0z
0_
0{
#170000
1"
1C
1z
1_
1{
#180000
0"
0C
0z
0_
0{
#190000
1"
1C
1z
1_
1{
#200000
0"
07
0C
0B
0r
0z
0[
0_
0$!
1)"
0{
0s
1&"
#210000
1"
1C
1z
1_
1{
#220000
0"
0C
0z
0_
0{
#230000
1"
1C
1z
1_
1{
#240000
0"
0C
0z
0_
0{
#250000
1"
1C
1z
1_
1{
#260000
0"
0C
0z
0_
0{
#270000
1"
1C
1z
1_
1{
#280000
0"
0C
0z
0_
0{
#290000
1"
1C
1z
1_
1{
#300000
0"
0C
0z
0_
0{
#310000
1"
1C
1z
1_
1{
#320000
0"
0C
0z
0_
0{
#330000
1"
1C
1z
1_
1{
#340000
0"
0C
0z
0_
0{
#350000
1"
1C
1z
1_
1{
#360000
0"
0C
0z
0_
0{
#370000
1"
1C
1z
1_
1{
#380000
0"
0C
0z
0_
0{
#390000
1"
1C
1z
1_
1{
#400000
0"
0C
0z
0_
0{
#410000
1"
1C
1z
1_
1{
#420000
0"
0C
0z
0_
0{
#430000
1"
1C
1z
1_
1{
#440000
0"
0C
0z
0_
0{
#450000
1"
1C
1z
1_
1{
#460000
0"
0C
0z
0_
0{
#470000
1"
1C
1z
1_
1{
#480000
0"
0C
0z
0_
0{
#490000
1"
1C
1z
1_
1{
#500000
0"
0C
0z
0_
0{
#510000
1"
1C
1z
1_
1{
#520000
0"
0C
0z
0_
0{
#530000
1"
1C
1z
1_
1{
#540000
0"
0C
0z
0_
0{
#550000
1"
1C
1z
1_
1{
#560000
0"
0C
0z
0_
0{
#570000
1"
1C
1z
1_
1{
#580000
0"
0C
0z
0_
0{
#590000
1"
1C
1z
1_
1{
#600000
0"
0C
0z
0_
0{
#610000
1"
1C
1z
1_
1{
#620000
0"
0C
0z
0_
0{
#630000
1"
1C
1z
1_
1{
#640000
0"
0C
0z
0_
0{
#650000
1"
1C
1z
1_
1{
#660000
0"
0C
0z
0_
0{
#670000
1"
1C
1z
1_
1{
#680000
0"
0C
0z
0_
0{
#690000
1"
1C
1z
1_
1{
#700000
0"
0C
0z
0_
0{
#710000
1"
1C
1z
1_
1{
#720000
0"
0C
0z
0_
0{
#730000
1"
1C
1z
1_
1{
#740000
0"
0C
0z
0_
0{
#750000
1"
1C
1z
1_
1{
#760000
0"
0C
0z
0_
0{
#770000
1"
1C
1z
1_
1{
#780000
0"
0C
0z
0_
0{
#790000
1"
1C
1z
1_
1{
#800000
0"
0C
0z
0_
0{
#810000
1"
1C
1z
1_
1{
#820000
0"
0C
0z
0_
0{
#830000
1"
1C
1z
1_
1{
#840000
0"
0C
0z
0_
0{
#850000
1"
1C
1z
1_
1{
#860000
0"
0C
0z
0_
0{
#870000
1"
1C
1z
1_
1{
#880000
0"
0C
0z
0_
0{
#890000
1"
1C
1z
1_
1{
#900000
0"
0C
0z
0_
0{
#910000
1"
1C
1z
1_
1{
#920000
0"
0C
0z
0_
0{
#930000
1"
1C
1z
1_
1{
#940000
0"
0C
0z
0_
0{
#950000
1"
1C
1z
1_
1{
#960000
0"
0C
0z
0_
0{
#970000
1"
1C
1z
1_
1{
#980000
0"
0C
0z
0_
0{
#990000
1"
1C
1z
1_
1{
#999000
05
06
0N!
0d
#1000000
0"
0C
0z
0_
0{
#1010000
1"
1C
1z
1_
1{
#1020000
0"
0C
0z
0_
0{
#1030000
1"
1C
1z
1_
1{
#1040000
0"
0C
0z
0_
0{
#1050000
1"
1C
1z
1_
1{
#1060000
0"
0C
0z
0_
0{
#1070000
1"
1C
1z
1_
1{
#1080000
0"
0C
0z
0_
0{
#1090000
1"
1C
1z
1_
1{
#1100000
0"
0C
0z
0_
0{
#1110000
1"
1C
1z
1_
1{
#1120000
0"
0C
0z
0_
0{
#1130000
1"
1C
1z
1_
1{
#1140000
0"
0C
0z
0_
0{
#1150000
1"
1C
1z
1_
1{
#1160000
0"
0C
0z
0_
0{
#1170000
1"
1C
1z
1_
1{
#1180000
0"
0C
0z
0_
0{
#1190000
1"
1C
1z
1_
1{
#1200000
0"
0C
0z
0_
0{
#1210000
1"
1C
1z
1_
1{
#1220000
0"
0C
0z
0_
0{
#1230000
1"
1C
1z
1_
1{
#1240000
0"
0C
0z
0_
0{
#1250000
1"
14
1C
1D
1o
1z
1c
1_
1{
1p
#1260000
0"
0C
0z
0_
0{
#1270000
1"
1C
1z
1_
1{
#1280000
0"
0C
0z
0_
0{
#1290000
1"
1C
1z
1_
1{
#1300000
0"
0C
0z
0_
0{
#1310000
1"
1C
1z
1_
1{
#1320000
0"
0C
0z
0_
0{
#1330000
1"
1C
1z
1_
1{
#1340000
0"
0C
0z
0_
0{
#1350000
1"
1C
1z
1_
1{
#1360000
0"
0C
0z
0_
0{
#1370000
1"
1C
1z
1_
1{
#1380000
0"
0C
0z
0_
0{
#1390000
1"
1C
1z
1_
1{
#1400000
0"
0C
0z
0_
0{
#1410000
1"
1C
1z
1_
1{
#1420000
0"
0C
0z
0_
0{
#1430000
1"
1C
1z
1_
1{
#1440000
0"
0C
0z
0_
0{
#1450000
1"
1C
1z
1_
1{
#1460000
0"
0C
0z
0_
0{
#1470000
1"
1C
1z
1_
1{
#1480000
0"
0C
0z
0_
0{
#1490000
1"
1C
1z
1_
1{
#1500000
0"
0C
0z
0_
0{
#1510000
1"
1C
1z
1_
1{
#1520000
0"
0C
0z
0_
0{
#1530000
1"
1C
1z
1_
1{
#1540000
0"
0C
0z
0_
0{
#1550000
1"
1C
1z
1_
1{
#1560000
0"
0C
0z
0_
0{
#1570000
1"
1C
1z
1_
1{
#1580000
0"
0C
0z
0_
0{
#1590000
1"
1C
1z
1_
1{
#1600000
0"
0C
0z
0_
0{
#1610000
1"
1C
1z
1_
1{
#1620000
0"
0C
0z
0_
0{
#1630000
1"
1C
1z
1_
1{
#1640000
0"
0C
0z
0_
0{
#1650000
1"
1C
1z
1_
1{
#1660000
0"
0C
0z
0_
0{
#1670000
1"
1C
1z
1_
1{
#1680000
0"
0C
0z
0_
0{
#1690000
1"
1C
1z
1_
1{
#1700000
0"
0C
0z
0_
0{
#1710000
1"
1C
1z
1_
1{
#1720000
0"
0C
0z
0_
0{
#1730000
1"
1C
1z
1_
1{
#1740000
0"
0C
0z
0_
0{
#1750000
1"
1C
1z
1_
1{
#1760000
0"
0C
0z
0_
0{
#1770000
1"
1C
1z
1_
1{
#1780000
0"
0C
0z
0_
0{
#1790000
1"
1C
1z
1_
1{
#1800000
0"
0C
0z
0_
0{
#1810000
1"
1C
1z
1_
1{
#1820000
0"
0C
0z
0_
0{
#1830000
1"
1C
1z
1_
1{
#1840000
0"
0C
0z
0_
0{
#1850000
1"
1C
1z
1_
1{
#1860000
0"
0C
0z
0_
0{
#1870000
1"
1C
1z
1_
1{
#1880000
0"
0C
0z
0_
0{
#1890000
1"
1C
1z
1_
1{
#1900000
0"
0C
0z
0_
0{
#1910000
1"
1C
1z
1_
1{
#1920000
0"
0C
0z
0_
0{
#1930000
1"
1C
1z
1_
1{
#1940000
0"
0C
0z
0_
0{
#1950000
1"
1C
1z
1_
1{
#1960000
0"
0C
0z
0_
0{
#1970000
1"
1C
1z
1_
1{
#1980000
0"
0C
0z
0_
0{
#1990000
1"
1C
1z
1_
1{
#2000000
0"
0C
0z
0_
0{
#2010000
1"
1C
1z
1_
1{
#2020000
0"
0C
0z
0_
0{
#2030000
1"
1C
1z
1_
1{
#2040000
0"
0C
0z
0_
0{
#2050000
1"
1C
1z
1_
1{
#2060000
0"
0C
0z
0_
0{
#2070000
1"
1C
1z
1_
1{
#2080000
0"
0C
0z
0_
0{
#2090000
1"
1C
1z
1_
1{
#2100000
0"
0C
0z
0_
0{
#2110000
1"
1C
1z
1_
1{
#2120000
0"
0C
0z
0_
0{
#2130000
1"
1C
1z
1_
1{
#2140000
0"
0C
0z
0_
0{
#2150000
1"
1C
1z
1_
1{
#2160000
0"
0C
0z
0_
0{
#2170000
1"
1C
1z
1_
1{
#2180000
0"
0C
0z
0_
0{
#2190000
1"
1C
1z
1_
1{
#2200000
0"
0C
0z
0_
0{
#2210000
1"
1C
1z
1_
1{
#2220000
0"
0C
0z
0_
0{
#2230000
1"
1C
1z
1_
1{
#2240000
0"
0C
0z
0_
0{
#2250000
1"
1C
1z
1_
1{
#2260000
0"
0C
0z
0_
0{
#2270000
1"
1C
1z
1_
1{
#2280000
0"
0C
0z
0_
0{
#2290000
1"
1C
1z
1_
1{
#2300000
0"
0C
0z
0_
0{
#2310000
1"
1C
1z
1_
1{
#2320000
0"
0C
0z
0_
0{
#2330000
1"
1C
1z
1_
1{
#2340000
0"
0C
0z
0_
0{
#2350000
1"
1C
1z
1_
1{
#2360000
0"
0C
0z
0_
0{
#2370000
1"
1C
1z
1_
1{
#2380000
0"
0C
0z
0_
0{
#2390000
1"
1C
1z
1_
1{
#2400000
0"
0C
0z
0_
0{
#2410000
1"
1C
1z
1_
1{
#2420000
0"
0C
0z
0_
0{
#2430000
1"
1C
1z
1_
1{
#2440000
0"
0C
0z
0_
0{
#2450000
1"
1C
1z
1_
1{
#2460000
0"
0C
0z
0_
0{
#2470000
1"
1C
1z
1_
1{
#2480000
0"
0C
0z
0_
0{
#2490000
1"
1C
1z
1_
1{
#2500000
0"
04
0C
0D
0o
0z
0c
0_
0{
0p
#2510000
1"
1C
1z
1_
1{
#2520000
0"
0C
0z
0_
0{
#2530000
1"
1C
1z
1_
1{
#2540000
0"
0C
0z
0_
0{
#2550000
1"
1C
1z
1_
1{
#2560000
0"
0C
0z
0_
0{
#2570000
1"
1C
1z
1_
1{
#2580000
0"
0C
0z
0_
0{
#2590000
1"
1C
1z
1_
1{
#2600000
0"
0C
0z
0_
0{
#2610000
1"
1C
1z
1_
1{
#2620000
0"
0C
0z
0_
0{
#2630000
1"
1C
1z
1_
1{
#2640000
0"
0C
0z
0_
0{
#2650000
1"
1C
1z
1_
1{
#2660000
0"
0C
0z
0_
0{
#2670000
1"
1C
1z
1_
1{
#2680000
0"
0C
0z
0_
0{
#2690000
1"
1C
1z
1_
1{
#2700000
0"
0C
0z
0_
0{
#2710000
1"
1C
1z
1_
1{
#2720000
0"
0C
0z
0_
0{
#2730000
1"
1C
1z
1_
1{
#2740000
0"
0C
0z
0_
0{
#2750000
1"
1C
1z
1_
1{
#2760000
0"
0C
0z
0_
0{
#2770000
1"
1C
1z
1_
1{
#2780000
0"
0C
0z
0_
0{
#2790000
1"
1C
1z
1_
1{
#2800000
0"
0C
0z
0_
0{
#2810000
1"
1C
1z
1_
1{
#2820000
0"
0C
0z
0_
0{
#2830000
1"
1C
1z
1_
1{
#2840000
0"
0C
0z
0_
0{
#2850000
1"
1C
1z
1_
1{
#2860000
0"
0C
0z
0_
0{
#2870000
1"
1C
1z
1_
1{
#2880000
0"
0C
0z
0_
0{
#2890000
1"
1C
1z
1_
1{
#2900000
0"
0C
0z
0_
0{
#2910000
1"
1C
1z
1_
1{
#2920000
0"
0C
0z
0_
0{
#2930000
1"
1C
1z
1_
1{
#2940000
0"
0C
0z
0_
0{
#2950000
1"
1C
1z
1_
1{
#2960000
0"
0C
0z
0_
0{
#2970000
1"
1C
1z
1_
1{
#2980000
0"
0C
0z
0_
0{
#2990000
1"
1C
1z
1_
1{
#3000000
0"
0C
0z
0_
0{
#3010000
1"
1C
1z
1_
1{
#3020000
0"
0C
0z
0_
0{
#3030000
1"
1C
1z
1_
1{
#3040000
0"
0C
0z
0_
0{
#3050000
1"
1C
1z
1_
1{
#3060000
0"
0C
0z
0_
0{
#3070000
1"
1C
1z
1_
1{
#3080000
0"
0C
0z
0_
0{
#3090000
1"
1C
1z
1_
1{
#3100000
0"
0C
0z
0_
0{
#3110000
1"
1C
1z
1_
1{
#3120000
0"
0C
0z
0_
0{
#3130000
1"
1C
1z
1_
1{
#3140000
0"
0C
0z
0_
0{
#3150000
1"
1C
1z
1_
1{
#3160000
0"
0C
0z
0_
0{
#3170000
1"
1C
1z
1_
1{
#3180000
0"
0C
0z
0_
0{
#3190000
1"
1C
1z
1_
1{
#3200000
0"
0C
0z
0_
0{
#3210000
1"
1C
1z
1_
1{
#3220000
0"
0C
0z
0_
0{
#3230000
1"
1C
1z
1_
1{
#3240000
0"
0C
0z
0_
0{
#3250000
1"
1C
1z
1_
1{
#3260000
0"
0C
0z
0_
0{
#3270000
1"
1C
1z
1_
1{
#3280000
0"
0C
0z
0_
0{
#3290000
1"
1C
1z
1_
1{
#3300000
0"
0C
0z
0_
0{
#3310000
1"
1C
1z
1_
1{
#3320000
0"
0C
0z
0_
0{
#3330000
1"
1C
1z
1_
1{
#3340000
0"
0C
0z
0_
0{
#3350000
1"
1C
1z
1_
1{
#3360000
0"
0C
0z
0_
0{
#3370000
1"
1C
1z
1_
1{
#3380000
0"
0C
0z
0_
0{
#3390000
1"
1C
1z
1_
1{
#3400000
0"
0C
0z
0_
0{
#3410000
1"
1C
1z
1_
1{
#3420000
0"
0C
0z
0_
0{
#3430000
1"
1C
1z
1_
1{
#3440000
0"
0C
0z
0_
0{
#3450000
1"
1C
1z
1_
1{
#3460000
0"
0C
0z
0_
0{
#3470000
1"
1C
1z
1_
1{
#3480000
0"
0C
0z
0_
0{
#3490000
1"
1C
1z
1_
1{
#3500000
0"
0C
0z
0_
0{
#3510000
1"
1C
1z
1_
1{
#3520000
0"
0C
0z
0_
0{
#3530000
1"
1C
1z
1_
1{
#3540000
0"
0C
0z
0_
0{
#3550000
1"
1C
1z
1_
1{
#3560000
0"
0C
0z
0_
0{
#3570000
1"
1C
1z
1_
1{
#3580000
0"
0C
0z
0_
0{
#3590000
1"
1C
1z
1_
1{
#3600000
0"
0C
0z
0_
0{
#3610000
1"
1C
1z
1_
1{
#3620000
0"
0C
0z
0_
0{
#3630000
1"
1C
1z
1_
1{
#3640000
0"
0C
0z
0_
0{
#3650000
1"
1C
1z
1_
1{
#3660000
0"
0C
0z
0_
0{
#3670000
1"
1C
1z
1_
1{
#3680000
0"
0C
0z
0_
0{
#3690000
1"
1C
1z
1_
1{
#3700000
0"
0C
0z
0_
0{
#3710000
1"
1C
1z
1_
1{
#3720000
0"
0C
0z
0_
0{
#3730000
1"
1C
1z
1_
1{
#3740000
0"
0C
0z
0_
0{
#3750000
1"
14
1C
1D
1o
1z
1c
1_
1{
1p
#3760000
0"
0C
0z
0_
0{
#3770000
1"
1C
1z
1_
1{
#3780000
0"
0C
0z
0_
0{
#3790000
1"
1C
1z
1_
1{
#3800000
0"
0C
0z
0_
0{
#3810000
1"
1C
1z
1_
1{
#3820000
0"
0C
0z
0_
0{
#3830000
1"
1C
1z
1_
1{
#3840000
0"
0C
0z
0_
0{
#3850000
1"
1C
1z
1_
1{
#3860000
0"
0C
0z
0_
0{
#3870000
1"
1C
1z
1_
1{
#3880000
0"
0C
0z
0_
0{
#3890000
1"
1C
1z
1_
1{
#3900000
0"
0C
0z
0_
0{
#3910000
1"
1C
1z
1_
1{
#3920000
0"
0C
0z
0_
0{
#3930000
1"
1C
1z
1_
1{
#3940000
0"
0C
0z
0_
0{
#3950000
1"
1C
1z
1_
1{
#3960000
0"
0C
0z
0_
0{
#3970000
1"
1C
1z
1_
1{
#3980000
0"
0C
0z
0_
0{
#3990000
1"
1C
1z
1_
1{
#4000000
0"
0C
0z
0_
0{
#4010000
1"
1C
1z
1_
1{
#4020000
0"
0C
0z
0_
0{
#4030000
1"
1C
1z
1_
1{
#4040000
0"
0C
0z
0_
0{
#4050000
1"
1C
1z
1_
1{
#4060000
0"
0C
0z
0_
0{
#4070000
1"
1C
1z
1_
1{
#4080000
0"
0C
0z
0_
0{
#4090000
1"
1C
1z
1_
1{
#4100000
0"
0C
0z
0_
0{
#4110000
1"
1C
1z
1_
1{
#4120000
0"
0C
0z
0_
0{
#4130000
1"
1C
1z
1_
1{
#4140000
0"
0C
0z
0_
0{
#4150000
1"
1C
1z
1_
1{
#4160000
0"
0C
0z
0_
0{
#4170000
1"
1C
1z
1_
1{
#4180000
0"
0C
0z
0_
0{
#4190000
1"
1C
1z
1_
1{
#4200000
0"
0C
0z
0_
0{
#4210000
1"
1C
1z
1_
1{
#4220000
0"
0C
0z
0_
0{
#4230000
1"
1C
1z
1_
1{
#4240000
0"
0C
0z
0_
0{
#4250000
1"
1C
1z
1_
1{
#4260000
0"
0C
0z
0_
0{
#4270000
1"
1C
1z
1_
1{
#4280000
0"
0C
0z
0_
0{
#4290000
1"
1C
1z
1_
1{
#4300000
0"
0C
0z
0_
0{
#4310000
1"
1C
1z
1_
1{
#4320000
0"
0C
0z
0_
0{
#4330000
1"
1C
1z
1_
1{
#4340000
0"
0C
0z
0_
0{
#4350000
1"
1C
1z
1_
1{
#4360000
0"
0C
0z
0_
0{
#4370000
1"
1C
1z
1_
1{
#4380000
0"
0C
0z
0_
0{
#4390000
1"
1C
1z
1_
1{
#4400000
0"
0C
0z
0_
0{
#4410000
1"
1C
1z
1_
1{
#4420000
0"
0C
0z
0_
0{
#4430000
1"
1C
1z
1_
1{
#4440000
0"
0C
0z
0_
0{
#4450000
1"
1C
1z
1_
1{
#4460000
0"
0C
0z
0_
0{
#4470000
1"
1C
1z
1_
1{
#4480000
0"
0C
0z
0_
0{
#4490000
1"
1C
1z
1_
1{
#4500000
0"
0C
0z
0_
0{
#4510000
1"
1C
1z
1_
1{
#4520000
0"
0C
0z
0_
0{
#4530000
1"
1C
1z
1_
1{
#4540000
0"
0C
0z
0_
0{
#4550000
1"
1C
1z
1_
1{
#4560000
0"
0C
0z
0_
0{
#4570000
1"
1C
1z
1_
1{
#4580000
0"
0C
0z
0_
0{
#4590000
1"
1C
1z
1_
1{
#4600000
0"
0C
0z
0_
0{
#4610000
1"
1C
1z
1_
1{
#4620000
0"
0C
0z
0_
0{
#4630000
1"
1C
1z
1_
1{
#4640000
0"
0C
0z
0_
0{
#4650000
1"
1C
1z
1_
1{
#4660000
0"
0C
0z
0_
0{
#4670000
1"
1C
1z
1_
1{
#4680000
0"
0C
0z
0_
0{
#4690000
1"
1C
1z
1_
1{
#4700000
0"
0C
0z
0_
0{
#4710000
1"
1C
1z
1_
1{
