VHDL/Components/SSD1306_VHDLImplementation-master/simulation/qsim/SSD1306_VHDLImplementation.msim.vcd
$comment
	File created using the following command:
		vcd file SSD1306_VHDLImplementation.msim.vcd -direction
$end
$date
	Wed Jul 08 00:18:18 2015
$end
$version
	ModelSim Version 10.1e
$end
$timescale
	1ps
$end
$scope module SSD1306_VHDLImplementation_vlg_vec_tst $end
$var reg 1 ! CLKI $end
$var reg 1 " RSTI $end
$var wire 1 # CD $end
$var wire 1 $ CLKO $end
$var wire 1 % CS $end
$var wire 1 & DO $end
$var wire 1 ' RSTO $end
$var wire 1 ( sampler $end
$scope module i1 $end
$var wire 1 ) gnd $end
$var wire 1 * vcc $end
$var wire 1 + unknown $end
$var tri1 1 , devclrn $end
$var tri1 1 - devpor $end
$var tri1 1 . devoe $end
$var wire 1 / CD~output_o $end
$var wire 1 0 CLKO~output_o $end
$var wire 1 1 DO~output_o $end
$var wire 1 2 CS~output_o $end
$var wire 1 3 RSTO~output_o $end
$var wire 1 4 CLKI~input_o $end
$var wire 1 5 inst2|Trig~0_combout $end
$var wire 1 6 RSTI~input_o $end
$var wire 1 7 inst2|Trig~q $end
$var wire 1 8 instS|TA~q $end
$var wire 1 9 instS|TAA~q $end
$var wire 1 : instS|State~15_combout $end
$var wire 1 ; instS|State~13_combout $end
$var wire 1 < instS|Add1~0_combout $end
$var wire 1 = instS|Selector8~0_combout $end
$var wire 1 > instS|Bsy~0_combout $end
$var wire 1 ? instS|ClkOv~q $end
$var wire 1 @ instS|Selector5~2_combout $end
$var wire 1 A instS|Selector8~1_combout $end
$var wire 1 B instS|Selector6~0_combout $end
$var wire 1 C instS|Selector5~3_combout $end
$var wire 1 D instS|Add0~0_combout $end
$var wire 1 E instS|Selector4~0_combout $end
$var wire 1 F instS|Selector3~3_combout $end
$var wire 1 G instS|Selector3~2_combout $end
$var wire 1 H instS|Equal0~0_combout $end
$var wire 1 I instS|Selector2~0_combout $end
$var wire 1 J instS|Selector2~1_combout $end
$var wire 1 K instS|Selector2~2_combout $end
$var wire 1 L instS|Equal0~1_combout $end
$var wire 1 M instS|State~14_combout $end
$var wire 1 N instS|State.DShift~q $end
$var wire 1 O instS|State~16_combout $end
$var wire 1 P instS|State.CSHigh~q $end
$var wire 1 Q instS|State~10_combout $end
$var wire 1 R instS|State~11_combout $end
$var wire 1 S instS|State~12_combout $end
$var wire 1 T instS|State.CSLow~q $end
$var wire 1 U instS|Selector0~0_combout $end
$var wire 1 V instS|Bsy~q $end
$var wire 1 W inst2|SPISt~12_combout $end
$var wire 1 X inst2|SPISt.BusyWaitA~q $end
$var wire 1 Y inst2|SPISt~11_combout $end
$var wire 1 Z inst2|SPISt.Done~q $end
$var wire 1 [ inst2|SPISt~10_combout $end
$var wire 1 \ inst2|PInstr[0]~9_combout $end
$var wire 1 ] inst2|PInstr[7]~15_combout $end
$var wire 1 ^ inst2|PInstr[2]~14 $end
$var wire 1 _ inst2|PInstr[3]~18_combout $end
$var wire 1 ` inst2|PInstr[3]~19 $end
$var wire 1 a inst2|PInstr[4]~20_combout $end
$var wire 1 b inst2|PInstr[4]~21 $end
$var wire 1 c inst2|PInstr[5]~22_combout $end
$var wire 1 d inst2|PInstr[5]~23 $end
$var wire 1 e inst2|PInstr[6]~24_combout $end
$var wire 1 f inst2|PInstr[6]~25 $end
$var wire 1 g inst2|PInstr[7]~26_combout $end
$var wire 1 h inst2|PSt~1_combout $end
$var wire 1 i inst2|PInstr[7]~16_combout $end
$var wire 1 j inst2|PInstr[7]~17_combout $end
$var wire 1 k inst2|PInstr[0]~10 $end
$var wire 1 l inst2|PInstr[1]~11_combout $end
$var wire 1 m inst2|PInstr[1]~12 $end
$var wire 1 n inst2|PInstr[2]~13_combout $end
$var wire 1 o inst2|PSt~0_combout $end
$var wire 1 p inst2|PSt~2_combout $end
$var wire 1 q inst2|PSt~3_combout $end
$var wire 1 r inst2|PSt~q $end
$var wire 1 s inst2|CD~q $end
$var wire 1 t inst2|Add0~0_combout $end
$var wire 1 u inst2|MemAddr[1]~0_combout $end
$var wire 1 v inst2|MemAddr[0]~1_combout $end
$var wire 1 w inst2|MemAddr[0]~2_combout $end
$var wire 1 x inst2|Add0~1 $end
$var wire 1 y inst2|Add0~2_combout $end
$var wire 1 z inst2|Add0~3 $end
$var wire 1 { inst2|Add0~4_combout $end
$var wire 1 | inst2|Add0~5 $end
$var wire 1 } inst2|Add0~6_combout $end
$var wire 1 ~ inst2|Add0~7 $end
$var wire 1 !! inst2|Add0~8_combout $end
$var wire 1 "! inst2|Add0~9 $end
$var wire 1 #! inst2|Add0~10_combout $end
$var wire 1 $! inst2|Add0~11 $end
$var wire 1 %! inst2|Add0~12_combout $end
$var wire 1 &! inst2|Add0~13 $end
$var wire 1 '! inst2|Add0~14_combout $end
$var wire 1 (! inst2|Add0~15 $end
$var wire 1 )! inst2|Add0~16_combout $end
$var wire 1 *! inst2|Add0~17 $end
$var wire 1 +! inst2|Add0~18_combout $end
$var wire 1 ,! inst2|Instrs~0_combout $end
$var wire 1 -! inst2|PDO~8_combout $end
$var wire 1 .! inst2|Instrs~1_combout $end
$var wire 1 /! inst2|PDO~9_combout $end
$var wire 1 0! inst2|PDO[7]~10_combout $end
$var wire 1 1! instS|DataO[7]~0_combout $end
$var wire 1 2! inst2|Instrs~2_combout $end
$var wire 1 3! inst2|Instrs~3_combout $end
$var wire 1 4! inst2|PDO[1]~1_combout $end
$var wire 1 5! inst2|Instrs~8_combout $end
$var wire 1 6! inst2|Instrs~9_combout $end
$var wire 1 7! inst2|PDO[0]~4_combout $end
$var wire 1 8! inst2|Instrs~4_combout $end
$var wire 1 9! inst2|Instrs~5_combout $end
$var wire 1 :! inst2|PDO[3]~3_combout $end
$var wire 1 ;! instS|Mux0~0_combout $end
$var wire 1 <! inst2|Instrs~6_combout $end
$var wire 1 =! inst2|Instrs~7_combout $end
$var wire 1 >! inst2|PDO[2]~2_combout $end
$var wire 1 ?! instS|Mux0~1_combout $end
$var wire 1 @! inst2|Instrs~10_combout $end
$var wire 1 A! inst2|Instrs~11_combout $end
$var wire 1 B! inst2|PDO[5]~5_combout $end
$var wire 1 C! inst2|Instrs~12_combout $end
$var wire 1 D! inst2|Instrs~13_combout $end
$var wire 1 E! inst2|PDO[6]~6_combout $end
$var wire 1 F! inst2|Instrs~14_combout $end
$var wire 1 G! inst2|Instrs~15_combout $end
$var wire 1 H! inst2|PDO[4]~7_combout $end
$var wire 1 I! instS|Mux0~2_combout $end
$var wire 1 J! instS|Selector7~2_combout $end
$var wire 1 K! instS|Selector7~3_combout $end
$var wire 1 L! instS|Selector7~4_combout $end
$var wire 1 M! instS|Selector7~5_combout $end
$var wire 1 N! instS|DO~q $end
$var wire 1 O! instS|Selector1~0_combout $end
$var wire 1 P! instS|CS~q $end
$var wire 1 Q! instS|Presc [7] $end
$var wire 1 R! instS|Presc [6] $end
$var wire 1 S! instS|Presc [5] $end
$var wire 1 T! instS|Presc [4] $end
$var wire 1 U! instS|Presc [3] $end
$var wire 1 V! instS|Presc [2] $end
$var wire 1 W! instS|Presc [1] $end
$var wire 1 X! instS|Presc [0] $end
$var wire 1 Y! instS|DataO [7] $end
$var wire 1 Z! instS|DataO [6] $end
$var wire 1 [! instS|DataO [5] $end
$var wire 1 \! instS|DataO [4] $end
$var wire 1 ]! instS|DataO [3] $end
$var wire 1 ^! instS|DataO [2] $end
$var wire 1 _! instS|DataO [1] $end
$var wire 1 `! instS|DataO [0] $end
$var wire 1 a! inst2|PDO [7] $end
$var wire 1 b! inst2|PDO [6] $end
$var wire 1 c! inst2|PDO [5] $end
$var wire 1 d! inst2|PDO [4] $end
$var wire 1 e! inst2|PDO [3] $end
$var wire 1 f! inst2|PDO [2] $end
$var wire 1 g! inst2|PDO [1] $end
$var wire 1 h! inst2|PDO [0] $end
$var wire 1 i! inst2|MemAddr [9] $end
$var wire 1 j! inst2|MemAddr [8] $end
$var wire 1 k! inst2|MemAddr [7] $end
$var wire 1 l! inst2|MemAddr [6] $end
$var wire 1 m! inst2|MemAddr [5] $end
$var wire 1 n! inst2|MemAddr [4] $end
$var wire 1 o! inst2|MemAddr [3] $end
$var wire 1 p! inst2|MemAddr [2] $end
$var wire 1 q! inst2|MemAddr [1] $end
$var wire 1 r! inst2|MemAddr [0] $end
$var wire 1 s! inst3|altsyncram_component|auto_generated|q_a [7] $end
$var wire 1 t! inst3|altsyncram_component|auto_generated|q_a [6] $end
$var wire 1 u! inst3|altsyncram_component|auto_generated|q_a [5] $end
$var wire 1 v! inst3|altsyncram_component|auto_generated|q_a [4] $end
$var wire 1 w! inst3|altsyncram_component|auto_generated|q_a [3] $end
$var wire 1 x! inst3|altsyncram_component|auto_generated|q_a [2] $end
$var wire 1 y! inst3|altsyncram_component|auto_generated|q_a [1] $end
$var wire 1 z! inst3|altsyncram_component|auto_generated|q_a [0] $end
$var wire 1 {! instS|DCnt [4] $end
$var wire 1 |! instS|DCnt [3] $end
$var wire 1 }! instS|DCnt [2] $end
$var wire 1 ~! instS|DCnt [1] $end
$var wire 1 !" instS|DCnt [0] $end
$var wire 1 "" inst2|PInstr [7] $end
$var wire 1 #" inst2|PInstr [6] $end
$var wire 1 $" inst2|PInstr [5] $end
$var wire 1 %" inst2|PInstr [4] $end
$var wire 1 &" inst2|PInstr [3] $end
$var wire 1 '" inst2|PInstr [2] $end
$var wire 1 (" inst2|PInstr [1] $end
$var wire 1 )" inst2|PInstr [0] $end
$var wire 1 *" inst3|altsyncram_component|auto_generated|ram_block1a7_PORTADATAOUT_bus [0] $end
$var wire 1 +" inst3|altsyncram_component|auto_generated|ram_block1a1_PORTADATAOUT_bus [0] $end
$var wire 1 ," inst3|altsyncram_component|auto_generated|ram_block1a3_PORTADATAOUT_bus [0] $end
$var wire 1 -" inst3|altsyncram_component|auto_generated|ram_block1a2_PORTADATAOUT_bus [0] $end
$var wire 1 ." inst3|altsyncram_component|auto_generated|ram_block1a0_PORTADATAOUT_bus [0] $end
$var wire 1 /" inst3|altsyncram_component|auto_generated|ram_block1a5_PORTADATAOUT_bus [0] $end
$var wire 1 0" inst3|altsyncram_component|auto_generated|ram_block1a6_PORTADATAOUT_bus [0] $end
$var wire 1 1" inst3|altsyncram_component|auto_generated|ram_block1a4_PORTADATAOUT_bus [0] $end
$upscope $end
$upscope $end
$enddefinitions $end
#0
$dumpvars
0!
0"
0#
0$
1%
0&
0'
x(
0)
1*
x+
1,
1-
1.
0/
00
01
12
03
04
05
06
07
08
09
1:
0;
1<
0=
0>
0?
0@
0A
0B
0C
0D
0E
1F
0G
1H
0I
0J
0K
0L
0M
0N
0O
0P
0Q
0R
0S
0T
0U
0V
1W
0X
1Y
0Z
0[
0\
1]
0^
0_
1`
0a
0b
0c
1d
0e
0f
0g
1h
1i
0j
0k
0l
1m
0n
1o
0p
0q
0r
0s
1t
0u
0v
0w
0x
0y
1z
0{
0|
0}
1~
0!!
0"!
0#!
1$!
0%!
0&!
0'!
1(!
0)!
0*!
0+!
0,!
1-!
0.!
1/!
00!
01!
02!
03!
04!
05!
06!
07!
08!
09!
1:!
0;!
0<!
0=!
0>!
0?!
0@!
0A!
1B!
0C!
0D!
0E!
0F!
0G!
0H!
0I!
0J!
0K!
0L!
0M!
0N!
0O!
0P!
0X!
zW!
zV!
zU!
zT!
zS!
zR!
zQ!
0`!
0_!
0^!
0]!
0\!
0[!
0Z!
0Y!
0h!
0g!
0f!
0e!
0d!
0c!
0b!
0a!
0r!
0q!
0p!
0o!
0n!
0m!
0l!
0k!
0j!
0i!
0z!
0y!
0x!
0w!
0v!
0u!
0t!
0s!
0!"
0~!
0}!
0|!
0{!
0)"
0("
0'"
0&"
0%"
0$"
0#"
0""
0*"
0+"
0,"
0-"
0."
0/"
00"
01"
$end
#250
1!
14
0(
#251
11"
10"
1/"
1-"
1,"
1."
1+"
1*"
1v!
1t!
1u!
1x!
1w!
1z!
1y!
1s!
#500
0!
04
1(
#750
1!
14
0(
#1000
0!
04
1(
#1250
1!
14
0(
#1500
0!
04
1(
#1750
1!
14
0(
#2000
0!
04
1(
#2250
1!
14
0(
#2500
0!
04
1(
#2750
1!
14
0(
#3000
0!
04
1(
#3250
1!
14
0(
#3500
0!
04
1(
#3750
1!
14
0(
#4000
0!
04
1(
#4250
1!
14
0(
#4500
0!
04
1(
#4750
1!
14
0(
#5000
0!
04
1(
#5250
1!
14
0(
#5500
0!
04
1(
#5750
1!
14
0(
#6000
0!
04
1(
#6250
1!
14
0(
#6500
0!
04
1(
#6750
1!
14
0(
#7000
0!
04
1(
#7250
1!
14
0(
#7500
0!
04
1(
#7750
1!
14
0(
#8000
0!
04
1(
#8250
1!
14
0(
#8500
0!
04
1(
#8750
1!
14
0(
#9000
0!
04
1(
#9250
1!
14
0(
#9500
0!
04
1(
#9750
1!
14
0(
#10000
1"
0!
04
1(
16
10!
13
1'
#10250
1!
14
0(
1c!
1e!
1a!
1Z
1X
1X!
17
00!
0i
0]
15
1>
0<
1j
#10500
0!
04
1(
#10750
1!
14
0(
0X!
18
0>
1<
11!
1R
0:
1S
1O
#11000
0!
04
1(
#11250
1!
14
0(
1[!
1]!
1Y!
1T
1P
1X!
19
1;!
1M!
1I!
1U
1M
1@
1O!
1Q
1>
0<
01!
0R
1?!
1J!
0S
1K!
#11500
0!
04
1(
#11750
1!
14
0(
1P!
1V
0T
1N
0X!
1N!
1\
0W
05
0M!
0M
1G
1B
0@
1=
0Q
1A
1;
0>
1<
1L!
02
11
0%
1&
1E
1C
1M
1M!
#12000
0!
04
1(
#12250
1!
14
0(
1)"
0X
1X!
07
1F!
1D!
1=!
1<!
16!
15!
13!
12!
1.!
1,!
1k
0\
1i
1]
1[
1>
0<
1H!
1>!
17!
14!
0-!
1l
0j
0/!
#12500
0!
04
1(
#12750
1!
14
0(
1|!
1}!
1~!
1!"
0X!
08
1?
1L
0G
0H
0F
0I!
0?!
0>
1<
0A
1@
0=
10
1$
1Q
0L
1G
0J!
0Q
0K!
0L!
0M!
#13000
0!
04
1(
#13250
1!
14
0(
1X!
09
1>
0<
#13500
0!
04
1(
#13750
1!
14
0(
0X!
0N!
0?
0>
1<
0B
1A
0@
1=
01
00
0&
0$
#14000
0!
04
1(
#14250
1!
14
0(
1X!
1>
0<
#14500
0!
04
1(
#14750
1!
14
0(
0!"
0X!
1?
1I!
0;!
0C
0>
1<
0A
1@
0=
10
1$
1J!
1C
1K!
1L!
1M!
#15000
0!
04
1(
#15250
1!
14
0(
1X!
1>
0<
#15500
0!
04
1(
#15750
1!
14
0(
0X!
1N!
0?
0>
1<
1B
1A
0@
1=
11
00
1&
0$
0C
#16000
0!
04
1(
#16250
1!
14
0(
1X!
1>
0<
#16500
0!
04
1(
#16750
1!
14
0(
0~!
1!"
0X!
1?
0I!
0>
1<
0A
1@
0=
10
1$
0J!
0K!
0L!
0M!
#17000
0!
04
1(
#17250
1!
14
0(
1X!
1>
0<
#17500
0!
04
1(
#17750
1!
14
0(
0X!
0N!
0?
0>
1<
0B
1A
0@
1=
01
00
0&
0$
#18000
0!
04
1(
#18250
1!
14
0(
1X!
1>
0<
#18500
0!
04
1(
#18750
1!
14
0(
0!"
0X!
1?
1I!
1;!
1D
1C
0>
1<
0A
1@
0=
10
1$
1J!
1?!
0C
1K!
1L!
1M!
#19000
0!
04
1(
#19250
1!
14
0(
1X!
1>
0<
#19500
0!
04
1(
#19750
1!
14
0(
0X!
1N!
0?
0>
1<
1B
1A
0@
1=
11
00
1&
0$
0E
1C
#20000
0!
04
1(
#20250
1!
14
0(
1X!
1>
0<
#20500
0!
04
1(
#20750
1!
14
0(
0}!
1~!
1!"
0X!
1?
0I!
0?!
0>
1<
0A
1@
0=
10
1$
0J!
0K!
0L!
0M!
#21000
0!
04
1(
#21250
1!
14
0(
1X!
1>
0<
#21500
0!
04
1(
#21750
1!
14
0(
0X!
0N!
0?
0>
1<
0B
1A
0@
1=
01
00
0&
0$
#22000
0!
04
1(
#22250
1!
14
0(
1X!
1>
0<
#22500
0!
04
1(
#22750
1!
14
0(
0!"
0X!
1?
1I!
0;!
0C
0>
1<
0A
1@
0=
10
1$
1J!
1C
#23000
0!
04
1(
#23250
1!
14
0(
1X!
1>
0<
#23500
0!
04
1(
#23750
1!
14
0(
0X!
0?
0>
1<
1B
1A
0@
1=
00
0$
0C
#24000
0!
04
1(
#24250
1!
14
0(
1X!
1>
0<
#24500
0!
04
1(
#24750
1!
14
0(
0~!
1!"
0X!
1?
0I!
0>
1<
0A
1@
0=
10
1$
0J!
#25000
0!
04
1(
#25250
1!
14
0(
1X!
1>
0<
#25500
0!
04
1(
#25750
1!
14
0(
0X!
0?
0>
1<
0B
1A
0@
1=
00
0$
#26000
0!
04
1(
#26250
1!
14
0(
1X!
1>
0<
#26500
0!
04
1(
#26750
1!
14
0(
0!"
0X!
1?
1I!
1;!
1H
0D
1C
0>
1<
0A
1@
0=
10
1$
1J!
1?!
1L
0C
1K!
1Q
1L!
1M!
#27000
0!
04
1(
#27250
1!
14
0(
1X!
0O
0M
1>
0<
#27500
0!
04
1(
#27750
1!
14
0(
0P
0N
0X!
1N!
0?
0O!
0Q
1:
0M!
0U
1O
0G
0@
0;
1M
0>
1<
1J
1F
11
00
1&
0$
0O
0M
#28000
0!
04
1(
#28250
1!
14
0(
1X!
1>
0<
#28500
0!
04
1(
#28750
1!
14
0(
0P!
0V
0|!
0X!
0N!
0k
1\
0Y
0L
0J
0>
1<
0L!
12
01
1%
0&
0l
#29000
0!
04
1(
#29250
1!
14
0(
0Z
1X!
10!
0[
1Y
1W
1>
0<
#29500
0!
04
1(
#29750
1!
14
0(
1d!
1f!
1h!
1g!
0a!
1Z
1X
0X!
17
00!
0i
0]
15
0>
1<
1j
#30000
0!
04
1(
#30250
1!
14
0(
1X!
18
1>
0<
11!
1R
0:
1S
1O
#30500
0!
04
1(
#30750
1!
14
0(
1\!
1^!
1`!
1_!
0Y!
1T
1P
0X!
19
0I!
1U
1@
1O!
1Q
0>
1<
01!
0R
0J!
0K!
#31000
0!
04
1(
#31250
1!
14
0(
1X!
0S
1M
1>
0<
#31500
0!
04
1(
#31750
1!
14
0(
1P!
1V
0T
1N
0X!
1k
0\
0W
05
0M
1G
1B
0@
1=
0Q
1A
1;
0>
1<
02
0%
1l
1E
1C
1M
#32000
0!
04
1(
#32250
1!
14
0(
1("
0)"
0X
1X!
07
0D!
1C!
1A!
1@!
0<!
19!
18!
06!
04!
0,!
0m
0l
03!
02!
0k
1\
1i
1]
1[
1>
0<
1E!
0B!
0>!
0:!
1-!
1n
14!
1m
1l
0j
1/!
0n
#32500
0!
04
1(
#32750
1!
14
0(
1|!
1}!
1~!
1!"
0X!
08
1?
1L
0G
0H
0F
0>
1<
0A
1@
0=
10
1$
1Q
0L
1G
0Q
#33000
0!
04
1(
#33250
1!
14
0(
1X!
09
1>
0<
#33500
0!
04
1(
#33750
1!
14
0(
0X!
0?
0>
1<
0B
1A
0@
1=
00
0$
#34000
0!
04
1(
#34250
1!
14
0(
1X!
1>
0<
#34500
0!
04
1(
#34750
1!
14
0(
0!"
0X!
1?
1I!
0;!
0C
0>
1<
0A
1@
0=
10
1$
1J!
1C
1K!
1L!
1M!
#35000
0!
04
1(
#35250
1!
14
0(
1X!
1>
0<
#35500
0!
04
1(
#35750
1!
14
0(
0X!
1N!
0?
0>
1<
1B
1A
0@
1=
11
00
1&
0$
0C
#36000
0!
04
1(
#36250
1!
14
0(
1X!
1>
0<
#36500
0!
04
1(
#36750
1!
14
0(
0~!
1!"
0X!
1?
0?!
1;!
0>
1<
0A
1@
0=
10
1$
1?!
#37000
0!
04
1(
#37250
1!
14
0(
1X!
1>
0<
#37500
0!
04
1(
#37750
1!
14
0(
0X!
0?
0>
1<
0B
1A
0@
1=
00
0$
#38000
0!
04
1(
#38250
1!
14
0(
1X!
1>
0<
#38500
0!
04
1(
#38750
1!
14
0(
0!"
0X!
1?
0I!
1D
1C
0>
1<
0A
1@
0=
10
1$
0J!
0C
#39000
0!
04
1(
#39250
1!
14
0(
1X!
1>
0<
#39500
0!
04
1(
#39750
1!
14
0(
0X!
0?
0>
1<
1B
1A
0@
1=
00
0$
0E
1C
#40000
0!
04
1(
#40250
1!
14
0(
1X!
1>
0<
#40500
0!
04
1(
#40750
1!
14
0(
0}!
1~!
1!"
0X!
1?
0>
1<
0A
1@
0=
10
1$
#41000
0!
04
1(
#41250
1!
14
0(
1X!
1>
0<
#41500
0!
04
1(
#41750
1!
14
0(
0X!
0?
0>
1<
0B
1A
0@
1=
00
0$
#42000
0!
04
1(
#42250
1!
14
0(
1X!
1>
0<
#42500
0!
04
1(
#42750
1!
14
0(
0!"
0X!
1?
1I!
0;!
0C
0>
1<
0A
1@
0=
10
1$
1J!
1C
#43000
0!
04
1(
#43250
1!
14
0(
1X!
1>
0<
#43500
0!
04
1(
#43750
1!
14
0(
0X!
0?
0>
1<
1B
1A
0@
1=
00
0$
0C
#44000
0!
04
1(
#44250
1!
14
0(
1X!
1>
0<
#44500
0!
04
1(
#44750
1!
14
0(
0~!
1!"
0X!
1?
0?!
1;!
0>
1<
0A
1@
0=
10
1$
0K!
1?!
0L!
1K!
0M!
1L!
1M!
#45000
0!
04
1(
#45250
1!
14
0(
1X!
1>
0<
#45500
0!
04
1(
#45750
1!
14
0(
0X!
0?
0>
1<
0B
1A
0@
1=
00
0$
#46000
0!
04
1(
#46250
1!
14
0(
1X!
1>
0<
#46500
0!
04
1(
#46750
1!
14
0(
0!"
0X!
1?
0I!
1H
0D
1C
0>
1<
0A
1@
0=
10
1$
0J!
1L
0C
0K!
1Q
0L!
0M!
#47000
0!
04
1(
#47250
1!
14
0(
1X!
0O
0M
1>
0<
#47500
0!
04
1(
#47750
1!
14
0(
0P
0N
0X!
0N!
0?
0O!
0Q
1:
0U
1O
0G
0@
0;
1M
0>
1<
1J
1F
01
00
0&
0$
0O
0M
#48000
0!
04
1(
#48250
1!
14
0(
1X!
1>
0<
#48500
0!
04
1(
#48750
1!
14
0(
0P!
0V
0|!
0X!
0\
0Y
0L
0J
0>
1<
12
1%
#49000
0!
04
1(
#49250
1!
14
0(
0Z
1X!
10!
0[
1Y
1W
1>
0<
#49500
0!
04
1(
#49750
1!
14
0(
1b!
0c!
0f!
0e!
1a!
1Z
1X
0X!
17
00!
0i
0]
15
0>
1<
1j
#50000
0!
04
1(
#50250
1!
14
0(
1X!
18
1>
0<
11!
1R
0:
1S
1O
#50500
0!
04
1(
#50750
1!
14
0(
1Z!
0[!
0^!
0]!
1Y!
1T
1P
0X!
19
0;!
1M!
1I!
1U
1@
1O!
1Q
0>
1<
01!
0R
0?!
1J!
1K!
#51000
0!
04
1(
#51250
1!
14
0(
1X!
0S
1M
1>
0<
#51500
0!
04
1(
#51750
1!
14
0(
1P!
1V
0T
1N
0X!
1N!
1\
0W
05
0M!
0M
1G
1B
0@
1=
0Q
1A
1;
0>
1<
1L!
02
11
0%
1&
1E
1C
1M
1M!
#52000
0!
04
1(
#52250
1!
14
0(
1)"
0X
1X!
07
1G!
0F!
0C!
0A!
0=!
09!
05!
13!
12!
1,!
1k
0\
1i
1]
1[
1>
0<
0H!
0E!
07!
04!
0-!
0m
0l
0j
0/!
1n
#52500
0!
04
1(
#52750
1!
14
0(
1|!
1}!
1~!
1!"
0X!
08
1?
1L
0G
0H
0F
0J!
0I!
1?!
1;!
0>
1<
0A
1@
0=
10
1$
1Q
0L
1G
0K!
1J!
0?!
0Q
0L!
1K!
0M!
1L!
1M!
#53000
0!
04
1(
#53250
1!
14
0(
1X!
09
1>
0<
#53500
0!
04
1(
#53750
1!
14
0(
0X!
0?
0>
1<
0B
1A
0@
1=
00
0$
#54000
0!
04
1(
#54250
1!
14
0(
1X!
1>
0<
#54500
0!
04
1(
#54750
1!
14
0(
0!"
0X!
1?
1I!
0;!
0C
0>
1<
0A
1@
0=
10
1$
0J!
1?!
1C
0K!
0L!
0M!
#55000
0!
04
1(
#55250
1!
14
0(
1X!
1>
0<
#55500
0!
04
1(
#55750
1!
14
0(
0X!
0N!
0?
0>
1<
1B
1A
0@
1=
01
00
0&
0$
0C
#56000
0!
04
1(
#56250
1!
14
0(
1X!
1>
0<
#56500
0!
04
1(
#56750
1!
14
0(
0~!
1!"
0X!
1?
1J!
0?!
1;!
0>
1<
0A
1@
0=
10
1$
1K!
1?!
1L!
1M!
#57000
0!
04
1(
#57250
1!
14
0(
1X!
1>
0<
#57500
0!
04
1(
#57750
1!
14
0(
0X!
1N!
0?
0>
1<
0B
1A
0@
1=
11
00
1&
0$
#58000
0!
04
1(
#58250
1!
14
0(
1X!
1>
0<
#58500
0!
04
1(
#58750
1!
14
0(
0!"
0X!
1?
0;!
1D
1C
0>
1<
0A
1@
0=
10
1$
0?!
0C
0K!
0L!
0M!
#59000
0!
04
1(
#59250
1!
14
0(
1X!
1>
0<
#59500
0!
04
1(
#59750
1!
14
0(
0X!
0N!
0?
0>
1<
1B
1A
0@
1=
01
00
0&
0$
0E
1C
#60000
0!
04
1(
#60250
1!
14
0(
1X!
1>
0<
#60500
0!
04
1(
#60750
1!
14
0(
0}!
1~!
1!"
0X!
1?
0J!
0I!
1?!
1;!
0>
1<
0A
1@
0=
10
1$
1K!
1J!
0?!
1L!
0K!
1M!
0L!
0M!
#61000
0!
04
1(
#61250
1!
14
0(
1X!
1>
0<
#61500
0!
04
1(
#61750
1!
14
0(
0X!
0?
0>
1<
0B
1A
0@
1=
00
0$
#62000
0!
04
1(
#62250
1!
14
0(
1X!
1>
0<
#62500
0!
04
1(
#62750
1!
14
0(
0!"
0X!
1?
1I!
0;!
0C
0>
1<
0A
1@
0=
10
1$
0J!
1?!
1C
1K!
1L!
1M!
#63000
0!
04
1(
#63250
1!
14
0(
1X!
1>
0<
#63500
0!
04
1(
#63750
1!
14
0(
0X!
1N!
0?
0>
1<
1B
1A
0@
1=
11
00
1&
0$
0C
#64000
0!
04
1(
#64250
1!
14
0(
1X!
1>
0<
#64500
0!
04
1(
#64750
1!
14
0(
0~!
1!"
0X!
1?
1J!
0?!
1;!
0>
1<
0A
1@
0=
10
1$
0K!
1?!
0L!
1K!
0M!
1L!
1M!
#65000
0!
04
1(
#65250
1!
14
0(
1X!
1>
0<
#65500
0!
04
1(
#65750
1!
14
0(
0X!
0?
0>
1<
0B
1A
0@
1=
00
0$
#66000
0!
04
1(
#66250
1!
14
0(
1X!
1>
0<
#66500
0!
04
1(
#66750
1!
14
0(
0!"
0X!
1?
0;!
1H
0D
1C
0>
1<
0A
1@
0=
10
1$
0?!
1L
0C
1Q
#67000
0!
04
1(
#67250
1!
14
0(
1X!
0O
0M
1>
0<
#67500
0!
04
1(
#67750
1!
14
0(
0P
0N
0X!
0?
0O!
0Q
1:
0M!
0U
1O
0G
0@
0;
1M
0>
1<
1J
1F
00
0$
0O
0M
#68000
0!
04
1(
#68250
1!
14
0(
1X!
1>
0<
#68500
0!
04
1(
#68750
1!
14
0(
0P!
0V
0|!
0X!
0N!
0o
0k
1\
0Y
0L
0J
0>
1<
0L!
12
01
1%
0&
1m
1l
0n
#69000
0!
04
1(
#69250
1!
14
0(
0Z
1X!
10!
0[
1Y
1W
1>
0<
#69500
0!
04
1(
#69750
1!
14
0(
0d!
0b!
0h!
0g!
0a!
1Z
1X
0X!
17
00!
0i
0]
15
0>
1<
1j
#70000
0!
04
1(
#70250
1!
14
0(
1X!
18
1>
0<
11!
1R
0:
1S
1O
#70500
0!
04
1(
#70750
1!
14
0(
0\!
0Z!
0`!
0_!
0Y!
1T
1P
0X!
19
0I!
1U
1@
1O!
1Q
0>
1<
01!
0R
0J!
0K!
#71000
0!
04
1(
#71250
1!
14
0(
1X!
0S
1M
1>
0<
#71500
0!
04
1(
#71750
1!
14
0(
1P!
1V
0T
1N
0X!
1o
1k
0\
0W
05
0M
1G
1B
0@
1=
0Q
1A
1;
0>
1<
02
0%
0m
0l
1E
1C
1M
1n
#72000
0!
04
1(
#72250
1!
14
0(
1'"
0("
0)"
0X
1X!
07
0G!
1C!
03!
02!
1^
0n
08!
14!
1m
1l
0k
1\
1i
1]
1[
1>
0<
1E!
04!
1_
0^
1n
0l
0j
0_
#72500
0!
04
1(
#72750
1!
14
0(
1|!
1}!
1~!
1!"
0X!
08
1?
1L
0G
0H
0F
1;!
0>
1<
0A
1@
0=
10
1$
1Q
0L
1G
0Q
#73000
0!
04
1(
#73250
1!
14
0(
1X!
09
1>
0<
#73500
0!
04
1(
#73750
1!
14
0(
0X!
0?
0>
1<
0B
1A
0@
1=
00
0$
#74000
0!
04
1(
#74250
1!
14
0(
1X!
1>
0<
#74500
0!
04
1(
#74750
1!
14
0(
0!"
0X!
1?
1I!
0;!
0C
0>
1<
0A
1@
0=
10
1$
1C
#75000
0!
04
1(
#75250
1!
14
0(
1X!
1>
0<
#75500
0!
04
1(
#75750
1!
14
0(
0X!
0?
0>
1<
1B
1A
0@
1=
00
0$
0C
#76000
0!
04
1(
#76250
1!
14
0(
1X!
1>
0<
#76500
0!
04
1(
#76750
1!
14
0(
0~!
1!"
0X!
1?
1J!
0I!
0>
1<
0A
1@
0=
10
1$
1K!
0J!
1L!
0K!
1M!
0L!
0M!
#77000
0!
04
1(
#77250
1!
14
0(
1X!
1>
0<
#77500
0!
04
1(
#77750
1!
14
0(
0X!
0?
0>
1<
0B
1A
0@
1=
00
0$
#78000
0!
04
1(
#78250
1!
14
0(
1X!
1>
0<
#78500
0!
04
1(
#78750
1!
14
0(
0!"
0X!
1?
1D
1C
0>
1<
0A
1@
0=
10
1$
0C
#79000
0!
04
1(
#79250
1!
14
0(
1X!
1>
0<
#79500
0!
04
1(
