VHDL/Components/COUNTER/COUNT_32/simulation/qsim/COUNT_32.msim.vcd
$comment
	File created using the following command:
		vcd file COUNT_32.msim.vcd -direction
$end
$date
	Wed May 15 16:24:55 2019
$end
$version
	ModelSim Version 10.5b
$end
$timescale
	1ps
$end

$scope module count_32_vhd_vec_tst $end
$var wire 1 ! clk $end
$var wire 1 " clr $end
$var wire 1 # d [31] $end
$var wire 1 $ d [30] $end
$var wire 1 % d [29] $end
$var wire 1 & d [28] $end
$var wire 1 ' d [27] $end
$var wire 1 ( d [26] $end
$var wire 1 ) d [25] $end
$var wire 1 * d [24] $end
$var wire 1 + d [23] $end
$var wire 1 , d [22] $end
$var wire 1 - d [21] $end
$var wire 1 . d [20] $end
$var wire 1 / d [19] $end
$var wire 1 0 d [18] $end
$var wire 1 1 d [17] $end
$var wire 1 2 d [16] $end
$var wire 1 3 d [15] $end
$var wire 1 4 d [14] $end
$var wire 1 5 d [13] $end
$var wire 1 6 d [12] $end
$var wire 1 7 d [11] $end
$var wire 1 8 d [10] $end
$var wire 1 9 d [9] $end
$var wire 1 : d [8] $end
$var wire 1 ; d [7] $end
$var wire 1 < d [6] $end
$var wire 1 = d [5] $end
$var wire 1 > d [4] $end
$var wire 1 ? d [3] $end
$var wire 1 @ d [2] $end
$var wire 1 A d [1] $end
$var wire 1 B d [0] $end
$var wire 1 C dec $end
$var wire 1 D inc $end
$var wire 1 E ld $end
$var wire 1 F q [31] $end
$var wire 1 G q [30] $end
$var wire 1 H q [29] $end
$var wire 1 I q [28] $end
$var wire 1 J q [27] $end
$var wire 1 K q [26] $end
$var wire 1 L q [25] $end
$var wire 1 M q [24] $end
$var wire 1 N q [23] $end
$var wire 1 O q [22] $end
$var wire 1 P q [21] $end
$var wire 1 Q q [20] $end
$var wire 1 R q [19] $end
$var wire 1 S q [18] $end
$var wire 1 T q [17] $end
$var wire 1 U q [16] $end
$var wire 1 V q [15] $end
$var wire 1 W q [14] $end
$var wire 1 X q [13] $end
$var wire 1 Y q [12] $end
$var wire 1 Z q [11] $end
$var wire 1 [ q [10] $end
$var wire 1 \ q [9] $end
$var wire 1 ] q [8] $end
$var wire 1 ^ q [7] $end
$var wire 1 _ q [6] $end
$var wire 1 ` q [5] $end
$var wire 1 a q [4] $end
$var wire 1 b q [3] $end
$var wire 1 c q [2] $end
$var wire 1 d q [1] $end
$var wire 1 e q [0] $end

$scope module i1 $end
$var wire 1 f gnd $end
$var wire 1 g vcc $end
$var wire 1 h unknown $end
$var wire 1 i devoe $end
$var wire 1 j devclrn $end
$var wire 1 k devpor $end
$var wire 1 l ww_devoe $end
$var wire 1 m ww_devclrn $end
$var wire 1 n ww_devpor $end
$var wire 1 o ww_d [31] $end
$var wire 1 p ww_d [30] $end
$var wire 1 q ww_d [29] $end
$var wire 1 r ww_d [28] $end
$var wire 1 s ww_d [27] $end
$var wire 1 t ww_d [26] $end
$var wire 1 u ww_d [25] $end
$var wire 1 v ww_d [24] $end
$var wire 1 w ww_d [23] $end
$var wire 1 x ww_d [22] $end
$var wire 1 y ww_d [21] $end
$var wire 1 z ww_d [20] $end
$var wire 1 { ww_d [19] $end
$var wire 1 | ww_d [18] $end
$var wire 1 } ww_d [17] $end
$var wire 1 ~ ww_d [16] $end
$var wire 1 !! ww_d [15] $end
$var wire 1 "! ww_d [14] $end
$var wire 1 #! ww_d [13] $end
$var wire 1 $! ww_d [12] $end
$var wire 1 %! ww_d [11] $end
$var wire 1 &! ww_d [10] $end
$var wire 1 '! ww_d [9] $end
$var wire 1 (! ww_d [8] $end
$var wire 1 )! ww_d [7] $end
$var wire 1 *! ww_d [6] $end
$var wire 1 +! ww_d [5] $end
$var wire 1 ,! ww_d [4] $end
$var wire 1 -! ww_d [3] $end
$var wire 1 .! ww_d [2] $end
$var wire 1 /! ww_d [1] $end
$var wire 1 0! ww_d [0] $end
$var wire 1 1! ww_ld $end
$var wire 1 2! ww_inc $end
$var wire 1 3! ww_dec $end
$var wire 1 4! ww_clr $end
$var wire 1 5! ww_clk $end
$var wire 1 6! ww_q [31] $end
$var wire 1 7! ww_q [30] $end
$var wire 1 8! ww_q [29] $end
$var wire 1 9! ww_q [28] $end
$var wire 1 :! ww_q [27] $end
$var wire 1 ;! ww_q [26] $end
$var wire 1 <! ww_q [25] $end
$var wire 1 =! ww_q [24] $end
$var wire 1 >! ww_q [23] $end
$var wire 1 ?! ww_q [22] $end
$var wire 1 @! ww_q [21] $end
$var wire 1 A! ww_q [20] $end
$var wire 1 B! ww_q [19] $end
$var wire 1 C! ww_q [18] $end
$var wire 1 D! ww_q [17] $end
$var wire 1 E! ww_q [16] $end
$var wire 1 F! ww_q [15] $end
$var wire 1 G! ww_q [14] $end
$var wire 1 H! ww_q [13] $end
$var wire 1 I! ww_q [12] $end
$var wire 1 J! ww_q [11] $end
$var wire 1 K! ww_q [10] $end
$var wire 1 L! ww_q [9] $end
$var wire 1 M! ww_q [8] $end
$var wire 1 N! ww_q [7] $end
$var wire 1 O! ww_q [6] $end
$var wire 1 P! ww_q [5] $end
$var wire 1 Q! ww_q [4] $end
$var wire 1 R! ww_q [3] $end
$var wire 1 S! ww_q [2] $end
$var wire 1 T! ww_q [1] $end
$var wire 1 U! ww_q [0] $end
$var wire 1 V! \clr~inputclkctrl_INCLK_bus\ [3] $end
$var wire 1 W! \clr~inputclkctrl_INCLK_bus\ [2] $end
$var wire 1 X! \clr~inputclkctrl_INCLK_bus\ [1] $end
$var wire 1 Y! \clr~inputclkctrl_INCLK_bus\ [0] $end
$var wire 1 Z! \clk~inputclkctrl_INCLK_bus\ [3] $end
$var wire 1 [! \clk~inputclkctrl_INCLK_bus\ [2] $end
$var wire 1 \! \clk~inputclkctrl_INCLK_bus\ [1] $end
$var wire 1 ]! \clk~inputclkctrl_INCLK_bus\ [0] $end
$var wire 1 ^! \q[0]~output_o\ $end
$var wire 1 _! \q[1]~output_o\ $end
$var wire 1 `! \q[2]~output_o\ $end
$var wire 1 a! \q[3]~output_o\ $end
$var wire 1 b! \q[4]~output_o\ $end
$var wire 1 c! \q[5]~output_o\ $end
$var wire 1 d! \q[6]~output_o\ $end
$var wire 1 e! \q[7]~output_o\ $end
$var wire 1 f! \q[8]~output_o\ $end
$var wire 1 g! \q[9]~output_o\ $end
$var wire 1 h! \q[10]~output_o\ $end
$var wire 1 i! \q[11]~output_o\ $end
$var wire 1 j! \q[12]~output_o\ $end
$var wire 1 k! \q[13]~output_o\ $end
$var wire 1 l! \q[14]~output_o\ $end
$var wire 1 m! \q[15]~output_o\ $end
$var wire 1 n! \q[16]~output_o\ $end
$var wire 1 o! \q[17]~output_o\ $end
$var wire 1 p! \q[18]~output_o\ $end
$var wire 1 q! \q[19]~output_o\ $end
$var wire 1 r! \q[20]~output_o\ $end
$var wire 1 s! \q[21]~output_o\ $end
$var wire 1 t! \q[22]~output_o\ $end
$var wire 1 u! \q[23]~output_o\ $end
$var wire 1 v! \q[24]~output_o\ $end
$var wire 1 w! \q[25]~output_o\ $end
$var wire 1 x! \q[26]~output_o\ $end
$var wire 1 y! \q[27]~output_o\ $end
$var wire 1 z! \q[28]~output_o\ $end
$var wire 1 {! \q[29]~output_o\ $end
$var wire 1 |! \q[30]~output_o\ $end
$var wire 1 }! \q[31]~output_o\ $end
$var wire 1 ~! \clk~input_o\ $end
$var wire 1 !" \clk~inputclkctrl_outclk\ $end
$var wire 1 "" \Pre_Q[0]~32_combout\ $end
$var wire 1 #" \d[0]~input_o\ $end
$var wire 1 $" \clr~input_o\ $end
$var wire 1 %" \clr~inputclkctrl_outclk\ $end
$var wire 1 &" \ld~input_o\ $end
$var wire 1 '" \inc~input_o\ $end
$var wire 1 (" \dec~input_o\ $end
$var wire 1 )" \Pre_Q[0]~34_combout\ $end
$var wire 1 *" \Pre_Q[0]~33\ $end
$var wire 1 +" \Pre_Q[1]~35_combout\ $end
$var wire 1 ," \d[1]~input_o\ $end
$var wire 1 -" \Pre_Q[1]~36\ $end
$var wire 1 ." \Pre_Q[2]~37_combout\ $end
$var wire 1 /" \d[2]~input_o\ $end
$var wire 1 0" \Pre_Q[2]~38\ $end
$var wire 1 1" \Pre_Q[3]~39_combout\ $end
$var wire 1 2" \d[3]~input_o\ $end
$var wire 1 3" \Pre_Q[3]~40\ $end
$var wire 1 4" \Pre_Q[4]~41_combout\ $end
$var wire 1 5" \d[4]~input_o\ $end
$var wire 1 6" \Pre_Q[4]~42\ $end
$var wire 1 7" \Pre_Q[5]~43_combout\ $end
$var wire 1 8" \d[5]~input_o\ $end
$var wire 1 9" \Pre_Q[5]~44\ $end
$var wire 1 :" \Pre_Q[6]~45_combout\ $end
$var wire 1 ;" \d[6]~input_o\ $end
$var wire 1 <" \Pre_Q[6]~46\ $end
$var wire 1 =" \Pre_Q[7]~47_combout\ $end
$var wire 1 >" \d[7]~input_o\ $end
$var wire 1 ?" \Pre_Q[7]~48\ $end
$var wire 1 @" \Pre_Q[8]~49_combout\ $end
$var wire 1 A" \d[8]~input_o\ $end
$var wire 1 B" \Pre_Q[8]~50\ $end
$var wire 1 C" \Pre_Q[9]~51_combout\ $end
$var wire 1 D" \d[9]~input_o\ $end
$var wire 1 E" \Pre_Q[9]~52\ $end
$var wire 1 F" \Pre_Q[10]~53_combout\ $end
$var wire 1 G" \d[10]~input_o\ $end
$var wire 1 H" \Pre_Q[10]~54\ $end
$var wire 1 I" \Pre_Q[11]~55_combout\ $end
$var wire 1 J" \d[11]~input_o\ $end
$var wire 1 K" \Pre_Q[11]~56\ $end
$var wire 1 L" \Pre_Q[12]~57_combout\ $end
$var wire 1 M" \d[12]~input_o\ $end
$var wire 1 N" \Pre_Q[12]~58\ $end
$var wire 1 O" \Pre_Q[13]~59_combout\ $end
$var wire 1 P" \d[13]~input_o\ $end
$var wire 1 Q" \Pre_Q[13]~60\ $end
$var wire 1 R" \Pre_Q[14]~61_combout\ $end
$var wire 1 S" \d[14]~input_o\ $end
$var wire 1 T" \Pre_Q[14]~62\ $end
$var wire 1 U" \Pre_Q[15]~63_combout\ $end
$var wire 1 V" \d[15]~input_o\ $end
$var wire 1 W" \Pre_Q[15]~64\ $end
$var wire 1 X" \Pre_Q[16]~65_combout\ $end
$var wire 1 Y" \d[16]~input_o\ $end
$var wire 1 Z" \Pre_Q[16]~66\ $end
$var wire 1 [" \Pre_Q[17]~67_combout\ $end
$var wire 1 \" \d[17]~input_o\ $end
$var wire 1 ]" \Pre_Q[17]~68\ $end
$var wire 1 ^" \Pre_Q[18]~69_combout\ $end
$var wire 1 _" \d[18]~input_o\ $end
$var wire 1 `" \Pre_Q[18]~70\ $end
$var wire 1 a" \Pre_Q[19]~71_combout\ $end
$var wire 1 b" \d[19]~input_o\ $end
$var wire 1 c" \Pre_Q[19]~72\ $end
$var wire 1 d" \Pre_Q[20]~73_combout\ $end
$var wire 1 e" \d[20]~input_o\ $end
$var wire 1 f" \Pre_Q[20]~74\ $end
$var wire 1 g" \Pre_Q[21]~75_combout\ $end
$var wire 1 h" \d[21]~input_o\ $end
$var wire 1 i" \Pre_Q[21]~76\ $end
$var wire 1 j" \Pre_Q[22]~77_combout\ $end
$var wire 1 k" \d[22]~input_o\ $end
$var wire 1 l" \Pre_Q[22]~78\ $end
$var wire 1 m" \Pre_Q[23]~79_combout\ $end
$var wire 1 n" \d[23]~input_o\ $end
$var wire 1 o" \Pre_Q[23]~80\ $end
$var wire 1 p" \Pre_Q[24]~81_combout\ $end
$var wire 1 q" \d[24]~input_o\ $end
$var wire 1 r" \Pre_Q[24]~82\ $end
$var wire 1 s" \Pre_Q[25]~83_combout\ $end
$var wire 1 t" \d[25]~input_o\ $end
$var wire 1 u" \Pre_Q[25]~84\ $end
$var wire 1 v" \Pre_Q[26]~85_combout\ $end
$var wire 1 w" \d[26]~input_o\ $end
$var wire 1 x" \Pre_Q[26]~86\ $end
$var wire 1 y" \Pre_Q[27]~87_combout\ $end
$var wire 1 z" \d[27]~input_o\ $end
$var wire 1 {" \Pre_Q[27]~88\ $end
$var wire 1 |" \Pre_Q[28]~89_combout\ $end
$var wire 1 }" \d[28]~input_o\ $end
$var wire 1 ~" \Pre_Q[28]~90\ $end
$var wire 1 !# \Pre_Q[29]~91_combout\ $end
$var wire 1 "# \d[29]~input_o\ $end
$var wire 1 ## \Pre_Q[29]~92\ $end
$var wire 1 $# \Pre_Q[30]~93_combout\ $end
$var wire 1 %# \d[30]~input_o\ $end
$var wire 1 &# \Pre_Q[30]~94\ $end
$var wire 1 '# \Pre_Q[31]~95_combout\ $end
$var wire 1 (# \d[31]~input_o\ $end
$var wire 1 )# Pre_Q [31] $end
$var wire 1 *# Pre_Q [30] $end
$var wire 1 +# Pre_Q [29] $end
$var wire 1 ,# Pre_Q [28] $end
$var wire 1 -# Pre_Q [27] $end
$var wire 1 .# Pre_Q [26] $end
$var wire 1 /# Pre_Q [25] $end
$var wire 1 0# Pre_Q [24] $end
$var wire 1 1# Pre_Q [23] $end
$var wire 1 2# Pre_Q [22] $end
$var wire 1 3# Pre_Q [21] $end
$var wire 1 4# Pre_Q [20] $end
$var wire 1 5# Pre_Q [19] $end
$var wire 1 6# Pre_Q [18] $end
$var wire 1 7# Pre_Q [17] $end
$var wire 1 8# Pre_Q [16] $end
$var wire 1 9# Pre_Q [15] $end
$var wire 1 :# Pre_Q [14] $end
$var wire 1 ;# Pre_Q [13] $end
$var wire 1 <# Pre_Q [12] $end
$var wire 1 =# Pre_Q [11] $end
$var wire 1 ># Pre_Q [10] $end
$var wire 1 ?# Pre_Q [9] $end
$var wire 1 @# Pre_Q [8] $end
$var wire 1 A# Pre_Q [7] $end
$var wire 1 B# Pre_Q [6] $end
$var wire 1 C# Pre_Q [5] $end
$var wire 1 D# Pre_Q [4] $end
$var wire 1 E# Pre_Q [3] $end
$var wire 1 F# Pre_Q [2] $end
$var wire 1 G# Pre_Q [1] $end
$var wire 1 H# Pre_Q [0] $end
$var wire 1 I# \ALT_INV_clr~inputclkctrl_outclk\ $end
$upscope $end
$upscope $end
$enddefinitions $end
#0
$dumpvars
0!
1"
0C
0D
0E
0f
1g
xh
1i
1j
1k
1l
1m
1n
01!
02!
03!
14!
05!
0^!
0_!
0`!
0a!
0b!
0c!
0d!
0e!
0f!
0g!
0h!
0i!
0j!
0k!
0l!
0m!
0n!
0o!
0p!
0q!
0r!
0s!
0t!
0u!
0v!
0w!
0x!
0y!
0z!
0{!
0|!
0}!
x~!
x!"
x""
x#"
x$"
x%"
x&"
x'"
x("
x)"
x*"
x+"
x,"
x-"
x."
x/"
x0"
x1"
x2"
x3"
x4"
x5"
x6"
x7"
x8"
x9"
x:"
x;"
x<"
x="
x>"
x?"
x@"
xA"
xB"
xC"
xD"
xE"
xF"
xG"
xH"
xI"
xJ"
xK"
xL"
xM"
xN"
xO"
xP"
xQ"
xR"
xS"
xT"
xU"
xV"
xW"
xX"
xY"
xZ"
x["
x\"
x]"
x^"
x_"
x`"
xa"
xb"
xc"
xd"
xe"
xf"
xg"
xh"
xi"
xj"
xk"
xl"
xm"
xn"
xo"
xp"
xq"
xr"
xs"
xt"
xu"
xv"
xw"
xx"
xy"
xz"
x{"
x|"
x}"
x~"
x!#
x"#
x##
x$#
x%#
x&#
x'#
x(#
xI#
0#
0$
0%
0&
0'
0(
0)
0*
0+
0,
0-
0.
0/
00
01
02
03
04
05
06
07
08
09
0:
0;
0<
0=
0>
0?
0@
0A
0B
0o
0p
0q
0r
0s
0t
0u
0v
0w
0x
0y
0z
0{
0|
0}
0~
0!!
0"!
0#!
0$!
0%!
0&!
0'!
0(!
0)!
0*!
0+!
0,!
0-!
0.!
0/!
00!
06!
07!
08!
09!
0:!
0;!
0<!
0=!
0>!
0?!
0@!
0A!
0B!
0C!
0D!
0E!
0F!
0G!
0H!
0I!
0J!
0K!
0L!
0M!
0N!
0O!
0P!
0Q!
0R!
0S!
0T!
0U!
0)#
0*#
0+#
0,#
0-#
0.#
0/#
00#
01#
02#
03#
04#
05#
06#
07#
08#
09#
0:#
0;#
0<#
0=#
0>#
0?#
0@#
0A#
0B#
0C#
0D#
0E#
0F#
0G#
0H#
1Z!
1[!
1\!
x]!
1V!
1W!
1X!
xY!
0F
0G
0H
0I
0J
0K
0L
0M
0N
0O
0P
0Q
0R
0S
0T
0U
0V
0W
0X
0Y
0Z
0[
0\
0]
0^
0_
0`
0a
0b
0c
0d
0e
$end
#596
1$"
1Y!
#660
0*"
#697
1""
#718
1-"
#750
1%"
0I#
#759
0#"
0&"
0'"
0("
0/"
02"
05"
0;"
0>"
0D"
0G"
0M"
0S"
0V"
0Y"
0\"
0_"
0b"
0k"
0n"
0t"
#761
0~!
0,"
08"
0A"
0J"
0P"
0e"
0h"
0q"
0w"
0z"
0}"
0"#
0%#
0(#
0]!
#776
00"
#834
13"
#892
06"
#899
0!"
#950
19"
#1008
0<"
#1066
1?"
#1124
0B"
#1182
1E"
#1240
0H"
#1298
1K"
#1356
0N"
#1414
1Q"
#1472
0T"
#1530
1W"
#1588
0Z"
#1646
1]"
#1704
0`"
#1762
1c"
#1820
0f"
#1878
1i"
#1936
0l"
#1994
1o"
#2052
0r"
#2110
1u"
#2168
0x"
#2226
1{"
#2284
0~"
#2342
1##
#2400
0&#
#4579
1'#
#4831
11"
#4833
1I"
#4836
17"
#4839
1U"
1O"
#4847
1g"
1["
#4848
1a"
#4852
1."
#4857
1:"
#4866
1j"
#4869
1d"
1X"
#4870
1^"
#5088
0)"
#5134
1+"
#5143
1="
#5146
1C"
#5154
14"
#5160
1@"
#5162
1F"
#5163
1R"
1L"
#5703
1!#
#5704
1s"
#5705
1y"
#5706
1m"
#5718
1$#
#5720
1|"
1v"
#5722
1p"
#10000
1!
15!
#10596
1~!
1]!
#10750
1!"
#20000
0!
0"
05!
04!
#20761
0$"
0~!
0Y!
0]!
#20899
0%"
0!"
1I#
#30000
1!
15!
#30596
1~!
1]!
#30750
1!"
#40000
0!
1D
05!
12!
#40594
1'"
#40761
0~!
0]!
#40899
0!"
#44064
0'#
#44360
01"
#44361
07"
#44363
0."
#44365
0U"
0O"
0I"
#44366
0:"
#44370
0g"
0a"
#44371
0j"
#44372
0["
#44373
0d"
#44375
0^"
#44377
0X"
#44598
1)"
#44669
0+"
#44673
04"
#44676
0="
#44678
0C"
#44679
0@"
#44680
0F"
#44681
0L"
#44683
0R"
#45206
0m"
#45209
0y"
#45210
0p"
0s"
#45211
0|"
#45212
0v"
#45214
0!#
#45216
0$#
#50000
1!
15!
#50596
1~!
1]!
#50750
1!"
#52497
1H#
#53126
0""
#53203
1*"
#53658
1+"
#57180
1^!
1U!
1e
#60000
0!
05!
#60761
0~!
0]!
#60899
0!"
#70000
1!
15!
#70596
1~!
1]!
#70750
1!"
#72497
1G#
0H#
#73076
0-"
#73131
0+"
#73157
0*"
#73194
1""
#73215
1-"
#73531
1."
#73612
1+"
#73652
0."
#77153
0^!
0U!
0e
#78588
1_!
1T!
1d
#80000
0!
0D
1C
05!
02!
13!
#80594
1("
#80759
0'"
#80761
0~!
0]!
#80899
0!"
#84579
1'#
#84831
11"
#84833
1I"
#84836
17"
#84839
1U"
1O"
#84847
1g"
1["
#84848
1a"
#84852
1."
#84857
1:"
#84866
1j"
#84869
1d"
1X"
#84870
1^"
#85108
0-"
#85143
1="
#85146
1C"
#85154
14"
#85160
0+"
1@"
#85162
1F"
#85163
1R"
1L"
#85166
10"
#85224
03"
#85282
16"
#85340
09"
#85398
1<"
#85456
0?"
#85514
1B"
#85545
0."
#85572
0E"
#85603
01"
#85630
1H"
#85661
04"
#85688
0K"
#85703
1!#
#85704
1s"
#85705
1y"
#85706
1m"
#85718
1$#
#85719
07"
#85720
1|"
1v"
#85722
1p"
#85746
1N"
#85777
0:"
#85804
0Q"
#85835
0="
#85862
1T"
#85893
0@"
#85920
0W"
#85951
0C"
#85978
1Z"
#86009
0F"
#86036
0]"
#86067
0I"
#86094
1`"
#86125
0L"
#86152
0c"
#86183
0O"
#86210
1f"
#86241
0R"
#86268
0i"
#86299
0U"
#86326
1l"
#86357
0X"
#86384
0o"
#86415
0["
#86442
1r"
#86473
0^"
#86500
0u"
#86531
0a"
#86558
1x"
#86589
0d"
#86616
0{"
#86647
0g"
#86674
1~"
#86705
0j"
#86732
0##
#86763
0m"
#86790
1&#
#86821
0p"
#86879
0s"
#86937
0v"
#86995
0y"
#87053
0|"
#87111
0!#
#87169
0$#
#87227
0'#
#90000
1!
15!
#90596
1~!
1]!
#90750
1!"
#92497
0G#
1H#
#93126
0""
#93203
1*"
#93204
1+"
#93640
0+"
#97180
1^!
1U!
1e
#98699
0_!
0T!
0d
#100000
0!
0C
05!
03!
#100759
0("
#100761
0~!
0]!
#100899
0!"
#104412
0)"
#110000
1!
15!
#110596
1~!
1]!
#110750
1!"
#120000
0!
1&
1)
1-
1.
10
14
16
18
19
1<
1=
1>
1?
1E
05!
1-!
1,!
1+!
1*!
1'!
1&!
1$!
1"!
1|
1z
1y
1u
1r
11!
#120594
1&"
1t"
1_"
1S"
1M"
1G"
1D"
1;"
15"
12"
#120596
1}"
1h"
1e"
18"
#120761
0~!
0]!
#120899
0!"
#122301
1)"
#130000
1!
15!
#130596
1~!
1]!
#130750
1!"
#132497
1:#
1<#
1>#
1?#
1B#
1C#
1D#
1E#
0H#
#132837
1,#
1/#
13#
14#
16#
#133102
1R"
#133103
1L"
14"
1:"
#133104
1F"
#133117
11"
#133118
17"
#133125
1C"
#133157
0*"
#133194
1""
#133215
1-"
#133273
00"
#133444
1|"
#133458
1g"
#133466
1s"
#133567
1d"
#133570
1^"
#133612
1+"
#133670
1."
#133710
01"
#136403
1a!
1R!
1b
#136651
1l!
1G!
1W
#136913
1s!
1@!
1P
#137045
1z!
19!
1I
#137144
1g!
1L!
1\
#137153
0^!
0U!
0e
#137295
1w!
1<!
1L
#137310
1h!
1K!
1[
#137447
1j!
1I!
1Y
#137457
1p!
1C!
1S
#137589
1r!
1A!
1Q
#137919
1b!
1Q!
1a
#137957
1c!
1P!
1`
#138290
1d!
1O!
1_
#140000
0!
0E
05!
01!
#140759
0&"
#140761
0~!
0]!
#140899
0!"
#142350
0)"
#150000
1!
0&
0)
0-
0.
00
04
06
08
09
0<
0=
0>
0?
15!
0-!
0,!
0+!
0*!
0'!
0&!
0$!
0"!
0|
0z
0y
0u
0r
#150596
1~!
1]!
#150750
1!"
#150759
0t"
0_"
0S"
0M"
0G"
0D"
0;"
05"
02"
#150761
0}"
0h"
0e"
08"
#160000
0!
05!
#160761
0~!
0]!
#160899
0!"
#170000
1!
15!
#170596
1~!
1]!
#170750
1!"
#180000
0!
05!
#180761
0~!
0]!
#180899
0!"
#190000
1!
15!
#190596
1~!
1]!
#190750
1!"
